20 10
2020 2040 2060 2080 2100 2120 2140 2160 2180 2200
100 100 100 100 100 100 100 100 100 100
8 6 4 3 13 5 11 10 7 8
100 100 100 100 100 100 100 100 100 100
0 0 1 0 0 1 2 5 6 2
100 100 100 100 100 100 100 100 100 100
17 15 21 22 18 32 19 27 22 22
100 100 100 100 100 100 100 100 100 100
6 5 1 4 9 1 8 4 0 3
100 100 100 100 100 100 100 100 100 100
17 15 21 22 18 32 19 27 22 22
100 100 100 100 100 100 100 100 100 100
8 6 4 3 13 5 11 10 7 8
100 100 100 100 100 100 100 100 100 100
14 11 6 10 11 4 12 6 12 16
100 100 100 100 100 100 100 100 100 100
6 17 17 15 7 8 8 7 9 4
100 100 100 100 100 100 100 100 100 100
12 18 19 15 8 9 8 7 9 4
100 100 100 100 100 100 100 100 100 100
8 6 4 3 13 5 11 10 7 8
100 100 100 100 100 100 100 100 100 100
8 6 4 3 13 5 11 10 7 8
100 100 100 100 100 100 100 100 100 100
17 15 21 22 18 32 19 27 22 22
100 100 100 100 100 100 100 100 100 100
11 18 19 15 8 9 8 7 9 4
100 100 100 100 100 100 100 100 100 100
10 6 6 9 11 4 12 6 12 16
100 100 100 100 100 100 100 100 100 100
7 5 5 7 7 23 9 14 9 16
100 100 100 100 100 100 100 100 100 100
0 1 2 10 1 2 4 1 1 1
100 100 100 100 100 100 100 100 100 100
9 4 13 7 7 3 6 6 7 2
100 100 100 100 100 100 100 100 100 100
9 6 6 9 11 4 10 4 8 8
100 100 100 100 100 100 100 100 100 100
9 6 6 9 11 4 12 6 12 16
100 100 100 100 100 100 100 100 100 100
12 18 19 15 8 9 10 9 13 12
