21 21
10000 10010 10020 10030 10040 10050 10060 10070 10080 10090 10100 10110 10120 10130 10140 10150 10160 10170 10180 10190 10200
100 100 100 100 100 100 100 100 100 100 100 100 100 100 100 100 100 100 100 100 100
26 14 8 2 8 10 10 13 3 9 15 8 13 15 17 16 14 13 4 4 6
100 100 100 100 100 100 100 100 100 100 100 100 100 100 100 100 100 100 100 100 100
0 4 7 4 2 3 2 2 3 0 1 0 0 0 0 0 0 0 0 0 0
100 100 100 100 100 100 100 100 100 100 100 100 100 100 100 100 100 100 100 100 100
32 18 8 2 8 10 10 13 3 9 15 8 13 15 17 16 14 13 4 4 6
100 100 100 100 100 100 100 100 100 100 100 100 100 100 100 100 100 100 100 100 100
0 0 0 0 0 0 0 0 0 0 0 0 0 0 0 0 6 3 0 0 0
100 100 100 100 100 100 100 100 100 100 100 100 100 100 100 100 100 100 100 100 100
32 18 8 2 8 10 10 13 3 9 15 8 13 15 17 16 14 13 4 4 6
100 100 100 100 100 100 100 100 100 100 100 100 100 100 100 100 100 100 100 100 100
0 0 0 0 0 0 0 0 0 0 0 0 0 0 0 0 8 3 7 6 6
100 100 100 100 100 100 100 100 100 100 100 100 100 100 100 100 100 100 100 100 100
0 0 0 0 0 0 0 0 0 4 9 5 11 9 5 10 3 4 3 0 0
100 100 100 100 100 100 100 100 100 100 100 100 100 100 100 100 100 100 100 100 100
2 3 3 0 5 10 10 13 3 9 15 8 13 15 17 16 14 13 4 4 6
100 100 100 100 100 100 100 100 100 100 100 100 100 100 100 100 100 100 100 100 100
41 56 55 63 56 46 52 45 56 67 60 68 59 54 57 70 61 63 71 64 69
100 100 100 100 100 100 100 100 100 100 100 100 100 100 100 100 100 100 100 100 100
6 11 14 8 19 5 10 13 18 20 18 26 19 16 23 14 7 13 8 2 1
100 100 100 100 100 100 100 100 100 100 100 100 100 100 100 100 100 100 100 100 100
0 0 0 0 0 0 0 0 0 0 0 0 0 0 0 0 0 0 1 6 2
100 100 100 100 100 100 100 100 100 100 100 100 100 100 100 100 100 100 100 100 100
0 0 0 0 0 0 0 6 8 5 6 0 0 0 0 0 0 0 0 0 0
100 100 100 100 100 100 100 100 100 100 100 100 100 100 100 100 100 100 100 100 100
7 2 12 10 13 10 10 6 5 1 7 4 2 5 0 0 0 0 0 0 0
100 100 100 100 100 100 100 100 100 100 100 100 100 100 100 100 100 100 100 100 100
7 2 12 10 13 10 10 6 5 1 7 4 2 5 0 0 0 0 0 0 0
100 100 100 100 100 100 100 100 100 100 100 100 100 100 100 100 100 100 100 100 100
0 0 1 12 4 7 4 5 2 7 2 4 5 4 3 18 17 25 26 26 29
100 100 100 100 100 100 100 100 100 100 100 100 100 100 100 100 100 100 100 100 100
0 0 0 0 0 0 0 1 5 3 0 8 14 10 4 8 16 15 14 21 16
100 100 100 100 100 100 100 100 100 100 100 100 100 100 100 100 100 100 100 100 100
0 0 0 0 0 0 0 0 0 0 0 6 3 1 0 0 0 0 0 0 0
100 100 100 100 100 100 100 100 100 100 100 100 100 100 100 100 100 100 100 100 100
0 0 0 0 0 0 0 0 0 1 1 4 6 11 11 3 4 7 8 8 6
100 100 100 100 100 100 100 100 100 100 100 100 100 100 100 100 100 100 100 100 100
59 47 49 37 44 54 48 55 44 33 40 32 41 46 43 30 39 37 29 36 31
100 100 100 100 100 100 100 100 100 100 100 100 100 100 100 100 100 100 100 100 100
11 4 7 11 10 14 8 5 7 6 6 6 8 12 13 6 9 8 11 11 9
100 100 100 100 100 100 100 100 100 100 100 100 100 100 100 100 100 100 100 100 100
0 0 0 0 0 0 0 0 0 0 0 0 0 0 0 7 3 0 0 0 0
