Pos. Mut_type p_1 p_2 p_3 p_4 p_5 p_6 p_7 p_8 p_9 p_10 p_11 p_12 p_13 p_14 p_15 p_16 p_17 p_18 p_19 p_20 p_21
42899 m1 0.39 0.5 0.38 0.5 0.38 0.35 0.3 0.41 0.48 0.5 0.44 0.4 0.38 0.32 0.23 0.23 0.13 0.07 0.02 0.0 0.0
3303 m1 0.47 0.4 0.39 0.33 0.4 0.43 0.47 0.4 0.35 0.43 0.52 0.58 0.51 0.61 0.75 0.7 0.86 0.93 0.97 1.0 1.0
17101 m1 0.0 0.0 0.0 0.0 0.0 0.0 0.0 0.0 0.0 0.0 0.01 0.01 0.08 0.04 0.0 0.0 0.0 0.0 0.0 0.0 0.0
26545 m1 0.39 0.5 0.38 0.5 0.38 0.35 0.3 0.41 0.48 0.5 0.44 0.4 0.38 0.32 0.22 0.23 0.13 0.07 0.03 0.0 0.0
8721 m1 0.01 0.0 0.01 0.01 0.03 0.11 0.04 0.04 0.0 0.02 0.01 0.0 0.0 0.0 0.0 0.0 0.0 0.0 0.0 0.0 0.0
47526 m1 0.15 0.3 0.25 0.28 0.19 0.17 0.13 0.17 0.25 0.26 0.13 0.12 0.16 0.18 0.08 0.03 0.03 0.01 0.0 0.0 0.0
7453 m1 0.24 0.2 0.13 0.22 0.19 0.18 0.17 0.24 0.23 0.24 0.31 0.28 0.22 0.13 0.14 0.2 0.1 0.06 0.03 0.0 0.0
40980 m2 0.0 0.0 0.0 0.0 0.0 0.0 0.0 0.0 0.0 0.0 0.0 0.01 0.04 0.06 0.17 0.32 0.52 0.77 0.92 1.0 1.0
45110 m1 0.39 0.5 0.38 0.5 0.38 0.35 0.3 0.41 0.48 0.5 0.44 0.4 0.38 0.32 0.23 0.23 0.13 0.07 0.02 0.0 0.0
43008 m1 0.0 0.0 0.0 0.0 0.0 0.0 0.0 0.0 0.0 0.0 0.0 0.0 0.0 0.0 0.0 0.0 0.01 0.01 0.01 0.08 0.06
16520 m1 0.14 0.1 0.23 0.17 0.22 0.22 0.23 0.19 0.17 0.07 0.04 0.02 0.11 0.07 0.03 0.07 0.01 0.0 0.0 0.0 0.0
37625 m1 0.02 0.0 0.03 0.07 0.07 0.04 0.02 0.01 0.02 0.02 0.0 0.0 0.0 0.0 0.0 0.0 0.0 0.0 0.0 0.0 0.0
5958 m1 0.07 0.06 0.05 0.09 0.08 0.06 0.03 0.05 0.06 0.02 0.01 0.01 0.01 0.0 0.0 0.0 0.0 0.0 0.0 0.0 0.0
4931 m1 0.47 0.4 0.39 0.33 0.4 0.43 0.47 0.4 0.35 0.43 0.52 0.58 0.51 0.61 0.75 0.7 0.86 0.93 0.97 1.0 1.0
18160 m1 0.61 0.5 0.62 0.5 0.62 0.65 0.7 0.59 0.52 0.5 0.56 0.6 0.62 0.68 0.78 0.77 0.87 0.93 0.97 1.0 1.0
43422 m1 0.61 0.5 0.62 0.5 0.62 0.65 0.7 0.59 0.52 0.5 0.56 0.6 0.62 0.68 0.77 0.77 0.87 0.93 0.98 1.0 1.0
49014 m1 0.04 0.04 0.03 0.05 0.03 0.06 0.04 0.01 0.05 0.01 0.03 0.01 0.11 0.06 0.02 0.04 0.0 0.0 0.0 0.0 0.0
31835 m1 0.0 0.0 0.0 0.0 0.0 0.0 0.0 0.0 0.0 0.03 0.01 0.01 0.07 0.02 0.04 0.02 0.01 0.02 0.0 0.0 0.0
25265 m1 0.0 0.0 0.0 0.0 0.0 0.0 0.0 0.0 0.0 0.0 0.0 0.0 0.0 0.01 0.01 0.0 0.06 0.01 0.02 0.0 0.0
2102 m1 0.18 0.2 0.16 0.11 0.1 0.03 0.09 0.05 0.04 0.06 0.01 0.01 0.07 0.02 0.04 0.02 0.01 0.02 0.0 0.0 0.0
24519 m1 0.14 0.1 0.23 0.17 0.22 0.22 0.23 0.19 0.17 0.07 0.04 0.02 0.11 0.07 0.03 0.07 0.01 0.0 0.0 0.0 0.0
37437 m1 0.09 0.06 0.11 0.06 0.09 0.1 0.12 0.06 0.07 0.01 0.03 0.01 0.11 0.06 0.02 0.04 0.0 0.0 0.0 0.0 0.0
25157 m1 0.0 0.0 0.0 0.01 0.03 0.06 0.02 0.0 0.01 0.05 0.06 0.09 0.02 0.01 0.08 0.01 0.0 0.0 0.0 0.0 0.0
13122 m1 0.0 0.0 0.0 0.0 0.02 0.04 0.07 0.05 0.05 0.09 0.13 0.12 0.08 0.14 0.32 0.48 0.63 0.81 0.94 1.0 1.0
6491 m1 0.15 0.3 0.25 0.28 0.19 0.17 0.13 0.17 0.25 0.26 0.13 0.12 0.16 0.19 0.08 0.03 0.03 0.01 0.0 0.0 0.0
16818 m1 0.61 0.5 0.62 0.5 0.62 0.65 0.7 0.59 0.52 0.5 0.56 0.6 0.62 0.68 0.78 0.77 0.87 0.93 0.97 1.0 1.0
44552 m1 0.61 0.5 0.62 0.5 0.62 0.65 0.7 0.59 0.52 0.5 0.56 0.6 0.62 0.68 0.77 0.77 0.87 0.93 0.98 1.0 1.0
35974 m1 0.03 0.06 0.05 0.06 0.09 0.16 0.13 0.04 0.08 0.12 0.14 0.13 0.09 0.04 0.1 0.03 0.06 0.06 0.01 0.0 0.0
39985 m1 0.46 0.36 0.46 0.34 0.5 0.45 0.54 0.49 0.4 0.34 0.4 0.42 0.5 0.54 0.63 0.71 0.81 0.87 0.97 1.0 1.0
31221 m1 0.03 0.08 0.05 0.03 0.0 0.03 0.03 0.02 0.07 0.09 0.05 0.08 0.15 0.18 0.08 0.03 0.03 0.01 0.0 0.0 0.0
26286 m1 0.0 0.0 0.03 0.05 0.03 0.06 0.04 0.01 0.05 0.01 0.03 0.01 0.11 0.06 0.02 0.04 0.0 0.0 0.0 0.0 0.0
8862 m1 0.15 0.3 0.25 0.28 0.19 0.17 0.13 0.17 0.25 0.26 0.13 0.12 0.16 0.18 0.08 0.03 0.03 0.01 0.0 0.0 0.0
5812 m1 0.61 0.5 0.62 0.5 0.62 0.65 0.7 0.59 0.52 0.5 0.56 0.6 0.62 0.68 0.78 0.77 0.87 0.93 0.97 1.0 1.0
15465 m1 0.0 0.0 0.0 0.0 0.01 0.0 0.01 0.07 0.03 0.04 0.03 0.02 0.03 0.0 0.0 0.0 0.0 0.0 0.0 0.0 0.0
22686 m1 0.24 0.2 0.13 0.22 0.19 0.18 0.17 0.24 0.23 0.24 0.31 0.28 0.22 0.14 0.14 0.2 0.1 0.06 0.03 0.0 0.0
40228 m1 0.61 0.5 0.62 0.5 0.62 0.65 0.7 0.59 0.52 0.5 0.56 0.6 0.62 0.68 0.77 0.77 0.87 0.93 0.98 1.0 1.0
19847 m1 0.0 0.0 0.03 0.05 0.03 0.06 0.04 0.01 0.05 0.01 0.03 0.01 0.11 0.06 0.02 0.04 0.0 0.0 0.0 0.0 0.0
14718 m1 0.02 0.0 0.03 0.07 0.07 0.04 0.02 0.01 0.02 0.02 0.0 0.0 0.0 0.0 0.0 0.0 0.0 0.0 0.0 0.0 0.0
41260 m1 0.61 0.5 0.62 0.5 0.62 0.65 0.7 0.59 0.52 0.5 0.56 0.6 0.62 0.68 0.77 0.77 0.87 0.93 0.98 1.0 1.0
1234 m1 0.18 0.2 0.16 0.11 0.1 0.03 0.09 0.05 0.04 0.06 0.01 0.01 0.07 0.02 0.04 0.02 0.01 0.02 0.0 0.0 0.0
12345 m1 0.0 0.0 0.0 0.0 0.0 0.0 0.0 0.0 0.0 0.0 0.0 0.01 0.04 0.06 0.18 0.32 0.52 0.77 0.91 1.0 1.0
42812 m1 0.24 0.2 0.13 0.22 0.19 0.18 0.17 0.24 0.23 0.24 0.31 0.28 0.22 0.14 0.15 0.2 0.1 0.06 0.02 0.0 0.0
31284 m1 0.24 0.2 0.13 0.22 0.19 0.18 0.17 0.24 0.23 0.24 0.31 0.28 0.22 0.14 0.14 0.2 0.1 0.06 0.03 0.0 0.0
28003 m1 0.39 0.5 0.38 0.5 0.38 0.35 0.3 0.41 0.48 0.5 0.44 0.4 0.38 0.32 0.22 0.23 0.13 0.07 0.03 0.0 0.0
41240 m1 0.07 0.06 0.05 0.12 0.11 0.07 0.06 0.07 0.06 0.05 0.01 0.01 0.01 0.0 0.0 0.0 0.0 0.0 0.0 0.0 0.0
16600 m1 0.39 0.5 0.38 0.5 0.38 0.35 0.3 0.41 0.48 0.5 0.44 0.4 0.38 0.32 0.22 0.23 0.13 0.07 0.03 0.0 0.0
32691 m1 0.61 0.5 0.62 0.5 0.62 0.65 0.7 0.59 0.52 0.5 0.56 0.6 0.62 0.68 0.78 0.77 0.87 0.93 0.98 1.0 1.0
17168 m1 0.03 0.02 0.05 0.1 0.03 0.04 0.03 0.06 0.04 0.04 0.02 0.05 0.03 0.1 0.04 0.03 0.0 0.0 0.0 0.0 0.0
1339 m1 0.24 0.2 0.13 0.22 0.19 0.13 0.17 0.24 0.23 0.24 0.31 0.28 0.22 0.13 0.14 0.2 0.1 0.06 0.03 0.0 0.0
20664 m1 0.39 0.5 0.38 0.5 0.38 0.35 0.3 0.41 0.48 0.5 0.44 0.4 0.38 0.32 0.22 0.23 0.13 0.07 0.03 0.0 0.0
38850 m1 0.39 0.5 0.38 0.5 0.38 0.35 0.3 0.41 0.48 0.5 0.44 0.4 0.38 0.32 0.23 0.23 0.13 0.07 0.02 0.0 0.0
46634 m1 0.15 0.3 0.25 0.28 0.19 0.17 0.13 0.17 0.25 0.26 0.13 0.12 0.16 0.18 0.08 0.03 0.03 0.01 0.0 0.0 0.0
49926 m1 0.02 0.01 0.06 0.0 0.0 0.0 0.0 0.0 0.0 0.0 0.0 0.0 0.0 0.0 0.0 0.0 0.0 0.0 0.0 0.0 0.0
30331 m1 0.15 0.3 0.25 0.28 0.19 0.17 0.13 0.17 0.25 0.26 0.13 0.12 0.16 0.18 0.08 0.03 0.03 0.01 0.0 0.0 0.0
24877 m1 0.39 0.5 0.38 0.5 0.38 0.35 0.3 0.41 0.48 0.5 0.44 0.4 0.38 0.32 0.22 0.23 0.13 0.07 0.03 0.0 0.0
49908 m1 0.0 0.03 0.02 0.07 0.08 0.05 0.05 0.04 0.07 0.03 0.06 0.08 0.08 0.06 0.06 0.14 0.07 0.04 0.02 0.0 0.0
37065 m1 0.0 0.0 0.0 0.0 0.0 0.0 0.0 0.0 0.03 0.01 0.03 0.01 0.11 0.06 0.02 0.04 0.0 0.0 0.0 0.0 0.0
38017 m1 0.07 0.06 0.05 0.12 0.11 0.07 0.06 0.07 0.06 0.05 0.01 0.01 0.01 0.0 0.0 0.0 0.0 0.0 0.0 0.0 0.0
22889 m1 0.14 0.1 0.23 0.17 0.22 0.22 0.23 0.19 0.17 0.07 0.04 0.02 0.11 0.07 0.03 0.07 0.01 0.0 0.0 0.0 0.0
1398 m1 0.15 0.3 0.25 0.28 0.19 0.17 0.13 0.17 0.25 0.27 0.15 0.17 0.19 0.28 0.1 0.04 0.05 0.01 0.0 0.0 0.0
14500 m1 0.14 0.1 0.23 0.17 0.22 0.22 0.23 0.19 0.17 0.07 0.04 0.02 0.11 0.07 0.03 0.07 0.01 0.0 0.0 0.0 0.0
29245 m1 0.02 0.01 0.06 0.0 0.0 0.0 0.0 0.0 0.0 0.0 0.0 0.0 0.0 0.0 0.0 0.0 0.0 0.0 0.0 0.0 0.0
5882 m1 0.0 0.0 0.0 0.0 0.0 0.0 0.0 0.0 0.0 0.0 0.0 0.0 0.0 0.01 0.02 0.08 0.08 0.17 0.2 0.21 0.24
45085 m1 0.01 0.0 0.01 0.01 0.03 0.11 0.04 0.04 0.0 0.02 0.01 0.0 0.0 0.0 0.0 0.0 0.0 0.0 0.0 0.0 0.0
20524 m1 0.39 0.5 0.38 0.5 0.38 0.35 0.3 0.41 0.48 0.5 0.44 0.4 0.38 0.32 0.22 0.23 0.13 0.07 0.03 0.0 0.0
