69 21
10000 10010 10020 10030 10040 10050 10060 10070 10080 10090 10100 10110 10120 10130 10140 10150 10160 10170 10180 10190 10200
100 100 100 100 100 100 100 100 100 100 100 100 100 100 100 100 100 100 100 100 100
4 6 5 7 10 14 9 14 16 8 6 9 5 1 2 0 0 0 0 0 0
100 100 100 100 100 100 100 100 100 100 100 100 100 100 100 100 100 100 100 100 100
0 0 0 0 6 14 27 46 52 45 46 32 55 59 42 38 43 58 48 61 52
100 100 100 100 100 100 100 100 100 100 100 100 100 100 100 100 100 100 100 100 100
0 0 0 0 0 0 0 0 0 0 0 0 0 0 0 0 0 1 6 8 1
100 100 100 100 100 100 100 100 100 100 100 100 100 100 100 100 100 100 100 100 100
0 0 0 0 0 0 0 0 0 0 0 0 3 5 3 2 10 5 9 7 1
100 100 100 100 100 100 100 100 100 100 100 100 100 100 100 100 100 100 100 100 100
5 0 8 4 4 4 0 0 0 0 0 0 0 0 0 0 0 0 0 0 0
100 100 100 100 100 100 100 100 100 100 100 100 100 100 100 100 100 100 100 100 100
63 60 56 48 46 54 35 39 38 40 43 59 36 35 53 56 52 37 50 39 45
100 100 100 100 100 100 100 100 100 100 100 100 100 100 100 100 100 100 100 100 100
59 54 51 41 36 40 26 25 22 32 37 50 32 34 51 56 52 37 50 39 45
100 100 100 100 100 100 100 100 100 100 100 100 100 100 100 100 100 100 100 100 100
37 40 44 52 54 46 65 61 62 60 57 41 64 65 47 44 48 63 50 61 55
100 100 100 100 100 100 100 100 100 100 100 100 100 100 100 100 100 100 100 100 100
0 0 0 0 0 3 20 43 46 45 46 32 56 59 42 38 43 58 48 61 52
100 100 100 100 100 100 100 100 100 100 100 100 100 100 100 100 100 100 100 100 100
0 0 2 7 3 4 16 7 6 2 0 0 0 0 0 0 0 0 0 0 0
100 100 100 100 100 100 100 100 100 100 100 100 100 100 100 100 100 100 100 100 100
27 21 25 14 9 13 20 13 13 10 8 10 2 9 11 6 10 2 2 2 0
100 100 100 100 100 100 100 100 100 100 100 100 100 100 100 100 100 100 100 100 100
0 0 0 0 0 4 3 4 7 8 8 4 2 9 11 6 10 2 2 2 0
100 100 100 100 100 100 100 100 100 100 100 100 100 100 100 100 100 100 100 100 100
0 0 0 0 1 4 8 0 0 0 0 0 0 0 0 0 0 0 0 0 0
100 100 100 100 100 100 100 100 100 100 100 100 100 100 100 100 100 100 100 100 100
0 0 0 0 0 0 0 0 0 0 0 6 0 0 0 0 0 0 0 0 0
100 100 100 100 100 100 100 100 100 100 100 100 100 100 100 100 100 100 100 100 100
59 54 51 41 36 40 26 25 22 32 37 50 32 34 51 56 52 37 50 39 45
100 100 100 100 100 100 100 100 100 100 100 100 100 100 100 100 100 100 100 100 100
0 0 0 0 0 0 0 0 0 0 0 6 0 0 0 0 0 0 0 0 0
100 100 100 100 100 100 100 100 100 100 100 100 100 100 100 100 100 100 100 100 100
63 60 56 48 46 54 35 39 38 40 43 59 37 35 53 56 52 37 50 39 45
100 100 100 100 100 100 100 100 100 100 100 100 100 100 100 100 100 100 100 100 100
0 0 0 0 0 0 0 0 3 8 8 4 2 9 11 6 10 2 2 2 0
100 100 100 100 100 100 100 100 100 100 100 100 100 100 100 100 100 100 100 100 100
36 39 44 52 54 46 65 61 60 60 57 41 64 65 47 41 48 63 50 61 55
100 100 100 100 100 100 100 100 100 100 100 100 100 100 100 100 100 100 100 100 100
4 6 5 7 10 14 9 14 16 8 6 9 5 1 2 0 0 0 0 0 0
100 100 100 100 100 100 100 100 100 100 100 100 100 100 100 100 100 100 100 100 100
37 40 44 52 54 46 65 61 62 60 57 41 64 65 47 44 48 63 50 61 55
100 100 100 100 100 100 100 100 100 100 100 100 100 100 100 100 100 100 100 100 100
63 60 56 48 46 54 35 39 38 40 43 59 37 35 53 56 52 37 50 39 45
100 100 100 100 100 100 100 100 100 100 100 100 100 100 100 100 100 100 100 100 100
17 16 21 10 11 11 2 4 1 8 9 7 7 4 4 3 3 4 2 0 3
100 100 100 100 100 100 100 100 100 100 100 100 100 100 100 100 100 100 100 100 100
37 40 44 52 54 46 65 61 62 60 57 41 64 65 47 44 48 63 50 61 55
100 100 100 100 100 100 100 100 100 100 100 100 100 100 100 100 100 100 100 100 100
7 5 6 9 8 4 8 0 0 0 0 0 0 0 0 0 0 0 0 0 0
100 100 100 100 100 100 100 100 100 100 100 100 100 100 100 100 100 100 100 100 100
36 39 44 52 54 46 65 61 62 60 57 41 64 65 47 43 48 63 50 61 55
100 100 100 100 100 100 100 100 100 100 100 100 100 100 100 100 100 100 100 100 100
36 39 44 52 54 46 65 61 60 60 57 41 64 65 47 41 48 63 50 61 55
100 100 100 100 100 100 100 100 100 100 100 100 100 100 100 100 100 100 100 100 100
0 1 3 4 10 14 9 14 16 8 6 9 5 1 2 0 0 0 0 0 0
100 100 100 100 100 100 100 100 100 100 100 100 100 100 100 100 100 100 100 100 100
8 11 9 3 4 7 2 4 1 8 9 7 7 4 4 3 3 4 2 0 3
100 100 100 100 100 100 100 100 100 100 100 100 100 100 100 100 100 100 100 100 100
37 40 44 52 54 46 65 61 62 60 57 41 64 65 47 44 48 63 50 61 55
100 100 100 100 100 100 100 100 100 100 100 100 100 100 100 100 100 100 100 100 100
59 54 51 41 36 40 26 25 22 32 37 50 31 34 51 56 52 37 50 39 45
100 100 100 100 100 100 100 100 100 100 100 100 100 100 100 100 100 100 100 100 100
64 61 56 48 46 54 35 39 38 40 43 59 36 35 53 57 52 37 50 39 45
100 100 100 100 100 100 100 100 100 100 100 100 100 100 100 100 100 100 100 100 100
0 0 0 0 0 0 4 6 3 1 1 6 3 1 2 0 0 0 0 0 0
100 100 100 100 100 100 100 100 100 100 100 100 100 100 100 100 100 100 100 100 100
60 55 51 41 36 40 26 25 24 32 37 50 31 34 51 59 52 37 50 39 45
100 100 100 100 100 100 100 100 100 100 100 100 100 100 100 100 100 100 100 100 100
59 54 51 41 36 40 26 25 22 32 37 50 31 34 51 56 52 37 50 39 45
100 100 100 100 100 100 100 100 100 100 100 100 100 100 100 100 100 100 100 100 100
19 23 23 42 43 35 63 57 59 52 48 34 57 61 43 38 45 59 48 61 52
100 100 100 100 100 100 100 100 100 100 100 100 100 100 100 100 100 100 100 100 100
27 29 18 23 24 25 6 4 7 14 13 23 21 15 21 30 16 11 18 17 17
100 100 100 100 100 100 100 100 100 100 100 100 100 100 100 100 100 100 100 100 100
17 16 21 10 11 11 2 4 1 8 9 7 7 4 4 3 3 4 2 0 3
100 100 100 100 100 100 100 100 100 100 100 100 100 100 100 100 100 100 100 100 100
63 60 56 48 46 54 35 39 38 40 43 59 37 35 53 56 52 37 50 39 45
100 100 100 100 100 100 100 100 100 100 100 100 100 100 100 100 100 100 100 100 100
37 40 44 52 54 46 65 61 62 60 57 41 63 65 47 44 48 63 50 61 55
100 100 100 100 100 100 100 100 100 100 100 100 100 100 100 100 100 100 100 100 100
0 0 0 0 0 0 0 0 0 0 0 0 3 4 2 6 1 2 0 0 0
100 100 100 100 100 100 100 100 100 100 100 100 100 100 100 100 100 100 100 100 100
60 55 51 41 36 40 26 25 24 32 37 50 31 34 51 59 52 37 50 39 45
100 100 100 100 100 100 100 100 100 100 100 100 100 100 100 100 100 100 100 100 100
0 0 0 0 0 0 0 2 2 4 11 10 6 7 19 20 26 22 28 18 28
100 100 100 100 100 100 100 100 100 100 100 100 100 100 100 100 100 100 100 100 100
63 60 56 48 46 54 35 39 38 40 43 59 36 35 53 56 52 37 50 39 45
100 100 100 100 100 100 100 100 100 100 100 100 100 100 100 100 100 100 100 100 100
37 40 44 52 54 46 65 61 62 60 57 41 63 65 47 44 48 63 50 61 55
100 100 100 100 100 100 100 100 100 100 100 100 100 100 100 100 100 100 100 100 100
63 60 56 48 46 54 35 39 38 40 43 59 36 35 53 56 52 37 50 39 45
100 100 100 100 100 100 100 100 100 100 100 100 100 100 100 100 100 100 100 100 100
63 60 56 48 46 54 35 39 38 40 43 59 37 35 53 56 52 37 50 39 45
100 100 100 100 100 100 100 100 100 100 100 100 100 100 100 100 100 100 100 100 100
37 40 44 52 54 46 65 61 62 60 57 41 64 65 47 44 48 63 50 61 55
100 100 100 100 100 100 100 100 100 100 100 100 100 100 100 100 100 100 100 100 100
0 4 9 15 12 17 37 49 61 52 48 34 56 61 43 41 45 59 48 61 52
100 100 100 100 100 100 100 100 100 100 100 100 100 100 100 100 100 100 100 100 100
0 0 0 0 0 0 0 0 0 0 0 0 0 0 0 0 0 4 3 8 10
100 100 100 100 100 100 100 100 100 100 100 100 100 100 100 100 100 100 100 100 100
64 61 56 48 46 54 35 39 38 40 43 59 36 35 53 57 52 37 50 39 45
100 100 100 100 100 100 100 100 100 100 100 100 100 100 100 100 100 100 100 100 100
37 40 44 52 54 46 65 61 62 60 57 41 63 65 47 44 48 63 50 61 55
100 100 100 100 100 100 100 100 100 100 100 100 100 100 100 100 100 100 100 100 100
59 54 51 41 36 40 26 25 22 32 37 50 31 34 51 56 52 37 50 39 45
100 100 100 100 100 100 100 100 100 100 100 100 100 100 100 100 100 100 100 100 100
0 3 8 8 6 2 3 3 9 7 2 2 1 2 1 3 2 1 0 0 0
100 100 100 100 100 100 100 100 100 100 100 100 100 100 100 100 100 100 100 100 100
59 54 51 41 36 40 26 25 22 32 37 50 31 34 51 56 52 37 50 39 45
100 100 100 100 100 100 100 100 100 100 100 100 100 100 100 100 100 100 100 100 100
7 5 6 9 8 4 9 0 0 0 0 0 0 0 0 0 0 0 0 0 0
100 100 100 100 100 100 100 100 100 100 100 100 100 100 100 100 100 100 100 100 100
17 16 22 15 16 14 5 5 1 8 9 7 7 4 4 3 3 4 2 0 3
100 100 100 100 100 100 100 100 100 100 100 100 100 100 100 100 100 100 100 100 100
37 40 44 52 54 46 65 61 62 60 57 41 63 65 47 44 48 63 50 61 55
100 100 100 100 100 100 100 100 100 100 100 100 100 100 100 100 100 100 100 100 100
0 0 0 0 0 0 0 0 0 0 2 5 4 2 12 12 18 8 13 11 12
100 100 100 100 100 100 100 100 100 100 100 100 100 100 100 100 100 100 100 100 100
63 60 56 48 46 54 35 39 38 40 43 59 37 35 53 56 52 37 50 39 45
100 100 100 100 100 100 100 100 100 100 100 100 100 100 100 100 100 100 100 100 100
37 40 44 52 54 46 65 61 62 60 57 41 64 65 47 44 48 63 50 61 55
100 100 100 100 100 100 100 100 100 100 100 100 100 100 100 100 100 100 100 100 100
0 0 0 0 0 0 0 0 0 0 0 0 0 0 0 0 9 29 30 46 51
100 100 100 100 100 100 100 100 100 100 100 100 100 100 100 100 100 100 100 100 100
0 0 0 0 0 2 0 2 0 0 0 6 0 0 0 0 0 0 0 0 0
100 100 100 100 100 100 100 100 100 100 100 100 100 100 100 100 100 100 100 100 100
63 60 56 48 46 54 35 39 38 40 43 59 37 35 53 56 52 37 50 39 45
100 100 100 100 100 100 100 100 100 100 100 100 100 100 100 100 100 100 100 100 100
37 40 44 52 54 46 65 61 62 60 57 41 63 65 47 44 48 63 50 61 55
100 100 100 100 100 100 100 100 100 100 100 100 100 100 100 100 100 100 100 100 100
37 40 44 52 54 46 65 61 62 60 57 41 64 65 47 44 48 63 50 61 55
100 100 100 100 100 100 100 100 100 100 100 100 100 100 100 100 100 100 100 100 100
0 7 4 1 0 0 0 0 0 0 0 0 0 0 0 0 0 0 0 0 0
100 100 100 100 100 100 100 100 100 100 100 100 100 100 100 100 100 100 100 100 100
4 6 5 7 10 14 9 14 16 8 6 9 5 1 2 0 0 0 0 0 0
100 100 100 100 100 100 100 100 100 100 100 100 100 100 100 100 100 100 100 100 100
0 0 0 0 0 0 0 0 0 0 0 0 0 0 0 0 0 7 2 0 0
