Pos. Mut_type p_1 p_2 p_3 p_4 p_5 p_6 p_7 p_8 p_9 p_10 p_11 p_12 p_13 p_14 p_15 p_16 p_17 p_18 p_19 p_20 p_21
27060 m1 0.53 0.49 0.54 0.45 0.49 0.48 0.5 0.41 0.49 0.54 0.42 0.38 0.5 0.46 0.5 0.47 0.49 0.56 0.58 0.41 0.54
3414 m1 0.53 0.5 0.57 0.45 0.49 0.48 0.5 0.41 0.48 0.54 0.41 0.38 0.49 0.48 0.5 0.47 0.49 0.56 0.58 0.41 0.54
23108 m1 0.53 0.49 0.54 0.45 0.49 0.48 0.5 0.41 0.49 0.54 0.42 0.38 0.5 0.46 0.5 0.47 0.49 0.56 0.58 0.41 0.54
17193 m1 0.0 0.0 0.0 0.0 0.0 0.01 0.02 0.01 0.06 0.04 0.01 0.02 0.01 0.01 0.01 0.01 0.02 0.01 0.0 0.0 0.0
3035 m1 0.08 0.03 0.05 0.06 0.03 0.02 0.09 0.01 0.06 0.07 0.03 0.02 0.09 0.1 0.09 0.1 0.2 0.2 0.13 0.13 0.15
26674 m1 0.47 0.51 0.46 0.55 0.51 0.52 0.5 0.59 0.51 0.46 0.58 0.62 0.5 0.54 0.5 0.53 0.51 0.44 0.42 0.59 0.46
26254 m1 0.53 0.49 0.54 0.45 0.49 0.48 0.5 0.41 0.49 0.54 0.42 0.38 0.5 0.46 0.5 0.47 0.49 0.56 0.58 0.41 0.54
26545 m1 0.02 0.06 0.13 0.05 0.09 0.01 0.07 0.05 0.02 0.11 0.05 0.03 0.08 0.04 0.0 0.02 0.01 0.03 0.09 0.05 0.05
25854 m1 0.53 0.49 0.54 0.45 0.49 0.48 0.5 0.41 0.49 0.54 0.42 0.38 0.5 0.46 0.5 0.47 0.49 0.56 0.58 0.41 0.54
42355 m1 0.0 0.0 0.0 0.0 0.0 0.0 0.0 0.0 0.01 0.0 0.0 0.02 0.01 0.02 0.03 0.07 0.04 0.03 0.0 0.01 0.0
39484 m1 0.53 0.49 0.54 0.45 0.5 0.48 0.5 0.41 0.49 0.54 0.42 0.38 0.5 0.47 0.52 0.48 0.49 0.56 0.58 0.41 0.54
5561 m1 0.47 0.5 0.43 0.55 0.51 0.52 0.5 0.59 0.52 0.46 0.59 0.62 0.51 0.52 0.5 0.53 0.51 0.44 0.42 0.59 0.46
42226 m1 0.53 0.49 0.54 0.45 0.5 0.48 0.5 0.41 0.49 0.54 0.42 0.38 0.5 0.47 0.52 0.48 0.49 0.56 0.58 0.41 0.54
34722 m1 0.32 0.29 0.26 0.36 0.25 0.25 0.27 0.21 0.14 0.1 0.21 0.18 0.11 0.15 0.12 0.14 0.13 0.06 0.06 0.01 0.0
32790 m1 0.47 0.51 0.46 0.55 0.51 0.52 0.5 0.59 0.51 0.46 0.58 0.62 0.5 0.54 0.5 0.53 0.51 0.44 0.42 0.59 0.46
47828 m1 0.05 0.01 0.01 0.07 0.05 0.03 0.05 0.0 0.0 0.01 0.01 0.0 0.01 0.0 0.0 0.0 0.0 0.0 0.0 0.0 0.0
18499 m1 0.53 0.49 0.54 0.45 0.49 0.48 0.5 0.41 0.49 0.54 0.42 0.38 0.5 0.46 0.5 0.47 0.49 0.56 0.58 0.41 0.54
5028 m1 0.02 0.06 0.13 0.04 0.09 0.01 0.07 0.05 0.02 0.11 0.05 0.03 0.08 0.04 0.0 0.02 0.01 0.03 0.09 0.05 0.05
43040 m1 0.03 0.01 0.03 0.04 0.08 0.11 0.12 0.09 0.1 0.08 0.1 0.05 0.07 0.09 0.03 0.06 0.11 0.11 0.18 0.08 0.06
39219 m1 0.47 0.51 0.46 0.55 0.5 0.52 0.5 0.59 0.51 0.46 0.58 0.62 0.5 0.53 0.48 0.52 0.51 0.44 0.42 0.59 0.46
42477 m1 0.47 0.51 0.46 0.55 0.5 0.52 0.5 0.59 0.51 0.46 0.58 0.62 0.5 0.53 0.48 0.52 0.51 0.44 0.42 0.59 0.46
23337 m1 0.0 0.0 0.02 0.0 0.0 0.0 0.02 0.01 0.01 0.06 0.02 0.01 0.02 0.01 0.0 0.01 0.0 0.01 0.0 0.0 0.03
30186 m1 0.47 0.51 0.46 0.55 0.51 0.52 0.5 0.59 0.51 0.46 0.58 0.62 0.5 0.54 0.5 0.53 0.51 0.44 0.42 0.59 0.46
31353 m1 0.0 0.0 0.0 0.0 0.0 0.0 0.0 0.0 0.06 0.04 0.03 0.08 0.06 0.07 0.06 0.06 0.06 0.0 0.01 0.01 0.0
20325 m1 0.53 0.49 0.54 0.45 0.49 0.48 0.5 0.41 0.49 0.54 0.42 0.38 0.5 0.46 0.5 0.47 0.49 0.56 0.58 0.41 0.54
16640 m1 0.53 0.5 0.57 0.45 0.49 0.48 0.5 0.41 0.49 0.54 0.42 0.38 0.5 0.46 0.5 0.47 0.49 0.56 0.58 0.41 0.54
38689 m2 0.53 0.49 0.54 0.45 0.49 0.48 0.5 0.41 0.49 0.54 0.42 0.38 0.5 0.47 0.52 0.48 0.49 0.56 0.58 0.41 0.54
46108 m1 0.47 0.51 0.46 0.55 0.5 0.52 0.5 0.59 0.51 0.46 0.58 0.62 0.5 0.53 0.48 0.52 0.51 0.44 0.42 0.58 0.46
1660 m1 0.09 0.07 0.08 0.05 0.12 0.08 0.06 0.16 0.12 0.1 0.17 0.12 0.18 0.07 0.08 0.1 0.08 0.07 0.01 0.02 0.0
13539 m1 0.07 0.03 0.04 0.05 0.08 0.03 0.04 0.03 0.08 0.1 0.04 0.1 0.13 0.06 0.24 0.15 0.04 0.11 0.11 0.06 0.17
45748 m2 0.47 0.51 0.46 0.55 0.5 0.52 0.5 0.59 0.51 0.46 0.58 0.62 0.5 0.53 0.48 0.52 0.51 0.44 0.42 0.58 0.46
35196 m2 0.47 0.51 0.46 0.55 0.51 0.52 0.5 0.59 0.51 0.46 0.58 0.62 0.5 0.54 0.5 0.53 0.51 0.44 0.42 0.59 0.46
26013 m1 0.47 0.51 0.46 0.55 0.51 0.52 0.5 0.59 0.51 0.46 0.58 0.62 0.5 0.54 0.5 0.53 0.51 0.44 0.42 0.59 0.46
39813 m1 0.17 0.22 0.21 0.25 0.17 0.16 0.21 0.16 0.13 0.09 0.2 0.18 0.1 0.15 0.12 0.14 0.13 0.06 0.06 0.01 0.0
1280 m1 0.16 0.06 0.09 0.11 0.11 0.05 0.13 0.04 0.14 0.17 0.07 0.12 0.22 0.18 0.33 0.25 0.24 0.31 0.24 0.19 0.32
24821 m1 0.53 0.49 0.54 0.45 0.49 0.48 0.5 0.41 0.49 0.54 0.42 0.38 0.5 0.46 0.5 0.47 0.49 0.56 0.58 0.41 0.54
47486 m2 0.0 0.0 0.0 0.0 0.0 0.0 0.0 0.0 0.0 0.0 0.0 0.0 0.0 0.0 0.0 0.0 0.04 0.26 0.32 0.51 0.44
39989 m1 0.09 0.07 0.08 0.05 0.12 0.08 0.06 0.15 0.12 0.1 0.17 0.12 0.18 0.07 0.08 0.1 0.08 0.07 0.01 0.02 0.0
18753 m1 0.0 0.0 0.0 0.0 0.0 0.02 0.05 0.07 0.07 0.12 0.09 0.16 0.07 0.18 0.17 0.19 0.18 0.31 0.34 0.55 0.46
23293 m2 0.47 0.51 0.46 0.55 0.51 0.52 0.5 0.59 0.51 0.46 0.58 0.62 0.5 0.54 0.5 0.53 0.51 0.44 0.42 0.59 0.46
22208 m1 0.47 0.51 0.46 0.55 0.51 0.52 0.5 0.59 0.51 0.46 0.58 0.62 0.5 0.54 0.5 0.53 0.51 0.44 0.42 0.59 0.46
5851 m1 0.47 0.5 0.43 0.55 0.51 0.52 0.5 0.59 0.52 0.46 0.59 0.62 0.51 0.52 0.5 0.53 0.51 0.44 0.42 0.59 0.46
2984 m1 0.47 0.5 0.43 0.55 0.51 0.52 0.5 0.59 0.52 0.46 0.59 0.62 0.51 0.52 0.5 0.53 0.51 0.44 0.42 0.59 0.46
47739 m1 0.0 0.0 0.0 0.0 0.0 0.0 0.0 0.0 0.0 0.0 0.0 0.0 0.02 0.03 0.06 0.05 0.0 0.04 0.02 0.0 0.02
30902 m1 0.47 0.51 0.46 0.55 0.51 0.52 0.5 0.59 0.51 0.46 0.58 0.62 0.5 0.54 0.5 0.53 0.51 0.44 0.42 0.59 0.46
49069 m1 0.47 0.51 0.46 0.55 0.5 0.52 0.5 0.59 0.51 0.46 0.58 0.62 0.5 0.53 0.48 0.52 0.51 0.44 0.42 0.58 0.46
20333 m2 0.47 0.51 0.46 0.55 0.51 0.52 0.5 0.59 0.51 0.46 0.58 0.62 0.5 0.54 0.5 0.53 0.51 0.44 0.42 0.59 0.46
31924 m1 0.17 0.22 0.21 0.25 0.17 0.16 0.21 0.16 0.13 0.09 0.2 0.18 0.1 0.15 0.12 0.14 0.13 0.06 0.06 0.01 0.0
25259 m1 0.53 0.49 0.54 0.45 0.49 0.48 0.5 0.41 0.49 0.54 0.42 0.38 0.5 0.46 0.5 0.47 0.49 0.56 0.58 0.41 0.54
47517 m2 0.47 0.51 0.46 0.55 0.5 0.52 0.5 0.59 0.51 0.46 0.58 0.62 0.5 0.53 0.48 0.52 0.51 0.44 0.42 0.58 0.46
28490 m1 0.16 0.05 0.07 0.09 0.1 0.04 0.1 0.04 0.14 0.18 0.05 0.14 0.21 0.16 0.33 0.25 0.25 0.32 0.24 0.19 0.32
15125 m1 0.47 0.5 0.43 0.55 0.51 0.52 0.5 0.59 0.51 0.46 0.58 0.62 0.5 0.54 0.5 0.53 0.51 0.44 0.42 0.59 0.46
10781 m1 0.53 0.5 0.57 0.46 0.49 0.48 0.5 0.41 0.48 0.54 0.41 0.38 0.49 0.46 0.5 0.47 0.49 0.56 0.58 0.41 0.54
6258 m1 0.08 0.12 0.06 0.04 0.04 0.03 0.02 0.01 0.0 0.0 0.0 0.0 0.0 0.0 0.0 0.0 0.0 0.0 0.0 0.0 0.0
35214 m1 0.47 0.51 0.46 0.55 0.51 0.52 0.5 0.59 0.51 0.46 0.58 0.62 0.5 0.54 0.5 0.53 0.51 0.44 0.42 0.59 0.46
49024 m1 0.53 0.49 0.54 0.45 0.5 0.48 0.5 0.41 0.49 0.54 0.42 0.38 0.5 0.47 0.52 0.48 0.49 0.56 0.58 0.42 0.54
40047 m1 0.0 0.0 0.0 0.0 0.0 0.0 0.0 0.0 0.0 0.03 0.0 0.01 0.01 0.04 0.04 0.04 0.07 0.14 0.1 0.11 0.12
8717 m1 0.53 0.5 0.57 0.45 0.49 0.48 0.5 0.41 0.48 0.54 0.41 0.38 0.49 0.46 0.5 0.47 0.49 0.56 0.58 0.41 0.54
17971 m2 0.53 0.49 0.54 0.45 0.49 0.48 0.5 0.41 0.49 0.54 0.42 0.38 0.5 0.46 0.5 0.47 0.49 0.56 0.58 0.41 0.54
16154 m1 0.18 0.11 0.2 0.14 0.19 0.04 0.17 0.09 0.13 0.26 0.09 0.15 0.28 0.19 0.32 0.26 0.24 0.34 0.33 0.24 0.37
47381 m1 0.15 0.13 0.14 0.12 0.07 0.16 0.07 0.16 0.18 0.11 0.17 0.11 0.14 0.09 0.11 0.03 0.04 0.06 0.04 0.09 0.1
23528 m1 0.47 0.51 0.46 0.55 0.51 0.52 0.5 0.59 0.51 0.46 0.58 0.62 0.5 0.54 0.5 0.53 0.51 0.44 0.42 0.59 0.46
5313 m1 0.47 0.5 0.43 0.55 0.51 0.52 0.5 0.59 0.52 0.46 0.59 0.62 0.51 0.52 0.5 0.53 0.51 0.44 0.42 0.59 0.46
43018 m2 0.47 0.51 0.46 0.55 0.5 0.52 0.5 0.59 0.51 0.46 0.58 0.62 0.5 0.53 0.48 0.52 0.51 0.44 0.42 0.59 0.46
3156 m1 0.16 0.06 0.09 0.11 0.11 0.05 0.13 0.04 0.14 0.17 0.07 0.12 0.22 0.18 0.33 0.25 0.24 0.31 0.24 0.19 0.32
15048 m1 0.53 0.5 0.57 0.45 0.49 0.48 0.5 0.41 0.49 0.54 0.42 0.38 0.5 0.46 0.5 0.47 0.49 0.56 0.58 0.41 0.54
28503 m1 0.53 0.49 0.54 0.45 0.49 0.48 0.5 0.41 0.49 0.54 0.42 0.38 0.5 0.46 0.5 0.47 0.49 0.56 0.58 0.41 0.54
39342 m1 0.47 0.51 0.46 0.55 0.5 0.52 0.5 0.59 0.51 0.46 0.58 0.62 0.5 0.53 0.48 0.52 0.51 0.44 0.42 0.59 0.46
12325 m1 0.0 0.0 0.0 0.0 0.0 0.0 0.0 0.02 0.04 0.02 0.0 0.05 0.06 0.06 0.05 0.01 0.01 0.02 0.03 0.06 0.07
46273 m1 0.47 0.51 0.46 0.55 0.5 0.52 0.5 0.59 0.51 0.46 0.58 0.62 0.5 0.53 0.48 0.52 0.51 0.44 0.42 0.58 0.46
43501 m1 0.33 0.37 0.29 0.28 0.26 0.4 0.3 0.3 0.33 0.25 0.32 0.21 0.21 0.27 0.19 0.21 0.23 0.21 0.25 0.17 0.17
33675 m1 0.53 0.49 0.54 0.45 0.49 0.48 0.5 0.41 0.49 0.54 0.42 0.38 0.5 0.46 0.5 0.47 0.49 0.56 0.58 0.41 0.54
7542 m1 0.09 0.03 0.05 0.03 0.07 0.07 0.03 0.08 0.08 0.06 0.13 0.06 0.11 0.04 0.05 0.07 0.06 0.04 0.0 0.01 0.0
30147 m1 0.0 0.0 0.0 0.0 0.0 0.0 0.05 0.01 0.02 0.05 0.0 0.02 0.07 0.09 0.08 0.09 0.19 0.2 0.13 0.13 0.15
15341 m1 0.53 0.5 0.57 0.45 0.49 0.48 0.5 0.41 0.49 0.54 0.42 0.38 0.5 0.46 0.5 0.47 0.49 0.56 0.58 0.41 0.54
18511 m1 0.47 0.51 0.46 0.55 0.51 0.52 0.5 0.59 0.51 0.46 0.58 0.62 0.5 0.54 0.5 0.53 0.51 0.44 0.42 0.59 0.46
33016 m1 0.04 0.06 0.03 0.04 0.04 0.02 0.01 0.01 0.0 0.0 0.0 0.0 0.0 0.0 0.0 0.0 0.0 0.0 0.0 0.0 0.0
44012 m1 0.33 0.37 0.29 0.28 0.26 0.4 0.3 0.3 0.33 0.25 0.32 0.21 0.21 0.27 0.19 0.21 0.23 0.21 0.25 0.17 0.17
25472 m1 0.0 0.0 0.0 0.0 0.02 0.01 0.01 0.01 0.06 0.05 0.02 0.02 0.04 0.06 0.09 0.08 0.0 0.05 0.03 0.03 0.11
32728 m1 0.0 0.0 0.0 0.0 0.0 0.0 0.0 0.0 0.0 0.0 0.0 0.0 0.0 0.0 0.06 0.01 0.01 0.01 0.0 0.0 0.0
13152 m1 0.02 0.06 0.13 0.05 0.09 0.01 0.07 0.05 0.02 0.11 0.05 0.03 0.08 0.04 0.0 0.02 0.01 0.03 0.09 0.05 0.05
28140 m1 0.02 0.06 0.13 0.05 0.09 0.01 0.07 0.05 0.02 0.11 0.05 0.03 0.08 0.04 0.0 0.02 0.01 0.03 0.09 0.05 0.05
17640 m1 0.53 0.5 0.57 0.45 0.49 0.48 0.5 0.41 0.49 0.54 0.42 0.38 0.5 0.46 0.5 0.47 0.49 0.56 0.58 0.41 0.54
35130 m1 0.0 0.01 0.0 0.02 0.01 0.01 0.04 0.01 0.04 0.01 0.01 0.02 0.03 0.03 0.02 0.02 0.06 0.0 0.0 0.0 0.0
25637 m1 0.02 0.06 0.13 0.05 0.09 0.01 0.07 0.05 0.02 0.11 0.05 0.03 0.08 0.04 0.0 0.02 0.01 0.03 0.09 0.05 0.05
1382 m1 0.33 0.37 0.3 0.27 0.24 0.39 0.27 0.3 0.32 0.26 0.29 0.23 0.19 0.26 0.17 0.2 0.24 0.22 0.25 0.17 0.17
19400 m1 0.0 0.0 0.0 0.0 0.0 0.0 0.0 0.0 0.0 0.0 0.0 0.0 0.0 0.0 0.06 0.01 0.01 0.04 0.02 0.02 0.01
28753 m1 0.0 0.02 0.01 0.02 0.01 0.01 0.04 0.01 0.04 0.01 0.01 0.02 0.03 0.03 0.02 0.02 0.06 0.0 0.0 0.0 0.0
35716 m1 0.53 0.49 0.54 0.45 0.49 0.48 0.5 0.41 0.49 0.54 0.42 0.38 0.5 0.46 0.5 0.47 0.49 0.56 0.58 0.41 0.54
12937 m1 0.47 0.5 0.43 0.55 0.51 0.52 0.5 0.59 0.52 0.46 0.59 0.62 0.51 0.54 0.5 0.53 0.51 0.44 0.42 0.59 0.46
11909 m1 0.53 0.5 0.57 0.45 0.49 0.48 0.5 0.41 0.48 0.54 0.41 0.38 0.49 0.46 0.5 0.47 0.49 0.56 0.58 0.41 0.54
46559 m1 0.0 0.0 0.0 0.0 0.0 0.0 0.0 0.0 0.0 0.0 0.0 0.03 0.01 0.0 0.06 0.01 0.01 0.04 0.02 0.02 0.01
24877 m1 0.47 0.51 0.46 0.55 0.51 0.52 0.5 0.59 0.51 0.46 0.58 0.62 0.5 0.54 0.5 0.53 0.51 0.44 0.42 0.59 0.46
13221 m1 0.47 0.5 0.43 0.55 0.51 0.52 0.5 0.59 0.52 0.46 0.59 0.62 0.51 0.54 0.5 0.53 0.51 0.44 0.42 0.59 0.46
10773 m1 0.53 0.5 0.57 0.46 0.49 0.48 0.5 0.41 0.48 0.54 0.41 0.38 0.49 0.46 0.5 0.47 0.49 0.56 0.58 0.41 0.54
10539 m1 0.53 0.5 0.57 0.46 0.49 0.48 0.5 0.41 0.48 0.54 0.41 0.38 0.49 0.46 0.5 0.47 0.49 0.56 0.58 0.41 0.54
4226 m2 0.53 0.5 0.57 0.45 0.49 0.48 0.5 0.41 0.48 0.54 0.41 0.38 0.49 0.48 0.5 0.47 0.49 0.56 0.58 0.41 0.54
27947 m1 0.47 0.51 0.46 0.55 0.51 0.52 0.5 0.59 0.51 0.46 0.58 0.62 0.5 0.54 0.5 0.53 0.51 0.44 0.42 0.59 0.46
15985 m1 0.47 0.5 0.43 0.55 0.51 0.52 0.5 0.59 0.51 0.46 0.58 0.62 0.5 0.54 0.5 0.53 0.51 0.44 0.42 0.59 0.46
38109 m1 0.53 0.49 0.54 0.45 0.49 0.48 0.5 0.41 0.49 0.54 0.42 0.38 0.5 0.47 0.52 0.48 0.49 0.56 0.58 0.41 0.54
39180 m1 0.47 0.51 0.46 0.55 0.5 0.52 0.5 0.59 0.51 0.46 0.58 0.62 0.5 0.53 0.48 0.52 0.51 0.44 0.42 0.59 0.46
22439 m1 0.0 0.0 0.03 0.04 0.0 0.03 0.0 0.0 0.07 0.04 0.03 0.08 0.06 0.07 0.06 0.06 0.06 0.0 0.01 0.01 0.0
11659 m1 0.53 0.5 0.57 0.45 0.49 0.48 0.5 0.41 0.48 0.54 0.41 0.38 0.49 0.46 0.5 0.47 0.49 0.56 0.58 0.41 0.54
25598 m2 0.47 0.51 0.46 0.55 0.51 0.52 0.5 0.59 0.51 0.46 0.58 0.62 0.5 0.54 0.5 0.53 0.51 0.44 0.42 0.59 0.46
31139 m1 0.16 0.05 0.07 0.09 0.1 0.04 0.1 0.04 0.14 0.18 0.05 0.14 0.21 0.16 0.33 0.25 0.25 0.32 0.24 0.19 0.32
32759 m1 0.53 0.49 0.54 0.45 0.49 0.48 0.5 0.41 0.49 0.54 0.42 0.38 0.5 0.46 0.5 0.47 0.49 0.56 0.58 0.41 0.54
37257 m1 0.53 0.49 0.54 0.45 0.49 0.48 0.5 0.41 0.49 0.54 0.42 0.38 0.5 0.47 0.52 0.48 0.49 0.56 0.58 0.41 0.54
30727 m2 0.53 0.49 0.54 0.45 0.49 0.48 0.5 0.41 0.49 0.54 0.42 0.38 0.5 0.46 0.5 0.47 0.49 0.56 0.58 0.41 0.54
31137 m1 0.05 0.03 0.04 0.05 0.08 0.04 0.04 0.03 0.11 0.13 0.05 0.12 0.14 0.07 0.25 0.16 0.06 0.12 0.11 0.06 0.17
14322 m1 0.16 0.05 0.07 0.09 0.1 0.03 0.1 0.04 0.11 0.15 0.04 0.12 0.2 0.15 0.32 0.24 0.23 0.31 0.24 0.19 0.32
17844 m1 0.53 0.5 0.57 0.45 0.49 0.48 0.5 0.41 0.49 0.54 0.42 0.38 0.5 0.46 0.5 0.47 0.49 0.56 0.58 0.41 0.54
12152 m1 0.53 0.5 0.57 0.45 0.49 0.48 0.5 0.41 0.48 0.54 0.41 0.38 0.49 0.46 0.5 0.47 0.49 0.56 0.58 0.41 0.54
24295 m1 0.0 0.0 0.0 0.0 0.0 0.02 0.0 0.01 0.02 0.03 0.03 0.04 0.06 0.02 0.02 0.01 0.0 0.0 0.0 0.0 0.0
25451 m1 0.16 0.05 0.07 0.09 0.1 0.04 0.1 0.04 0.14 0.18 0.05 0.14 0.21 0.16 0.33 0.25 0.25 0.32 0.24 0.19 0.32
16870 m1 0.33 0.38 0.32 0.28 0.25 0.41 0.3 0.3 0.36 0.28 0.33 0.23 0.22 0.27 0.18 0.21 0.25 0.22 0.25 0.17 0.17
17430 m1 0.0 0.07 0.07 0.1 0.08 0.13 0.12 0.18 0.23 0.22 0.17 0.3 0.19 0.31 0.27 0.29 0.3 0.31 0.35 0.56 0.46
44141 m1 0.53 0.49 0.54 0.45 0.5 0.48 0.5 0.41 0.49 0.54 0.42 0.38 0.5 0.47 0.52 0.48 0.49 0.56 0.58 0.41 0.54
43609 m1 0.15 0.13 0.14 0.12 0.07 0.16 0.07 0.16 0.18 0.11 0.17 0.11 0.14 0.09 0.11 0.03 0.04 0.06 0.04 0.09 0.1
44332 m1 0.47 0.51 0.46 0.55 0.5 0.52 0.5 0.59 0.51 0.46 0.58 0.62 0.5 0.53 0.48 0.52 0.51 0.44 0.42 0.59 0.46
17958 m1 0.53 0.49 0.54 0.45 0.49 0.48 0.5 0.41 0.49 0.54 0.42 0.38 0.5 0.46 0.5 0.47 0.49 0.56 0.58 0.41 0.54
21645 m1 0.07 0.03 0.04 0.05 0.08 0.03 0.04 0.03 0.08 0.1 0.04 0.1 0.13 0.06 0.24 0.15 0.04 0.11 0.11 0.06 0.17
37887 m2 0.47 0.51 0.46 0.55 0.51 0.52 0.5 0.59 0.51 0.46 0.58 0.62 0.5 0.53 0.48 0.52 0.51 0.44 0.42 0.59 0.46
17967 m1 0.0 0.0 0.0 0.0 0.0 0.0 0.0 0.0 0.0 0.0 0.01 0.01 0.02 0.02 0.0 0.01 0.01 0.02 0.09 0.05 0.02
27691 m1 0.53 0.49 0.54 0.45 0.49 0.48 0.5 0.41 0.49 0.54 0.42 0.38 0.5 0.46 0.5 0.47 0.49 0.56 0.58 0.41 0.54
14756 m1 0.47 0.5 0.43 0.55 0.51 0.52 0.5 0.59 0.51 0.46 0.58 0.62 0.5 0.54 0.5 0.53 0.51 0.44 0.42 0.59 0.46
48065 m1 0.53 0.49 0.54 0.45 0.5 0.48 0.5 0.41 0.49 0.54 0.42 0.38 0.5 0.47 0.52 0.48 0.49 0.56 0.58 0.42 0.54
30184 m1 0.07 0.11 0.09 0.08 0.05 0.09 0.08 0.04 0.05 0.06 0.05 0.05 0.0 0.08 0.03 0.11 0.08 0.04 0.03 0.0 0.01
41981 m1 0.14 0.17 0.11 0.19 0.12 0.15 0.15 0.14 0.11 0.07 0.14 0.17 0.08 0.15 0.12 0.14 0.13 0.06 0.06 0.01 0.0
14325 m1 0.47 0.5 0.43 0.55 0.51 0.52 0.5 0.59 0.51 0.46 0.58 0.62 0.5 0.54 0.5 0.53 0.51 0.44 0.42 0.59 0.46
48162 m1 0.08 0.11 0.03 0.04 0.04 0.03 0.02 0.01 0.0 0.0 0.0 0.0 0.0 0.0 0.0 0.0 0.0 0.0 0.0 0.0 0.0
20587 m1 0.0 0.0 0.0 0.0 0.02 0.01 0.01 0.01 0.06 0.05 0.02 0.02 0.04 0.06 0.09 0.08 0.0 0.05 0.03 0.03 0.11
32681 m1 0.47 0.51 0.46 0.55 0.51 0.52 0.5 0.59 0.51 0.46 0.58 0.62 0.5 0.54 0.5 0.53 0.51 0.44 0.42 0.59 0.46
4995 m1 0.01 0.04 0.11 0.02 0.07 0.01 0.07 0.03 0.02 0.11 0.05 0.03 0.08 0.04 0.0 0.02 0.01 0.03 0.09 0.05 0.05
20906 m1 0.47 0.51 0.46 0.55 0.51 0.52 0.5 0.59 0.51 0.46 0.58 0.62 0.5 0.54 0.5 0.53 0.51 0.44 0.42 0.59 0.46
16657 m1 0.33 0.38 0.32 0.28 0.25 0.41 0.3 0.3 0.36 0.28 0.33 0.23 0.22 0.27 0.18 0.21 0.25 0.22 0.25 0.17 0.17
12207 m1 0.53 0.5 0.57 0.45 0.49 0.48 0.5 0.41 0.48 0.54 0.41 0.38 0.49 0.46 0.5 0.47 0.49 0.56 0.58 0.41 0.54
16620 m1 0.53 0.5 0.57 0.45 0.49 0.48 0.5 0.41 0.49 0.54 0.42 0.38 0.5 0.46 0.5 0.47 0.49 0.56 0.58 0.41 0.54
37484 m1 0.47 0.51 0.46 0.55 0.51 0.52 0.5 0.59 0.51 0.46 0.58 0.62 0.5 0.53 0.48 0.52 0.51 0.44 0.42 0.59 0.46
46989 m1 0.47 0.51 0.46 0.55 0.5 0.52 0.5 0.59 0.51 0.46 0.58 0.62 0.5 0.53 0.48 0.52 0.51 0.44 0.42 0.58 0.46
21347 m1 0.0 0.0 0.0 0.0 0.0 0.0 0.0 0.0 0.0 0.0 0.0 0.0 0.0 0.0 0.0 0.0 0.01 0.02 0.09 0.05 0.02
23772 m1 0.53 0.49 0.54 0.45 0.49 0.48 0.5 0.41 0.49 0.54 0.42 0.38 0.5 0.46 0.5 0.47 0.49 0.56 0.58 0.41 0.54
34010 m1 0.53 0.49 0.54 0.45 0.49 0.48 0.5 0.41 0.49 0.54 0.42 0.38 0.5 0.46 0.5 0.47 0.49 0.56 0.58 0.41 0.54
15838 m1 0.33 0.38 0.32 0.28 0.25 0.41 0.3 0.3 0.36 0.28 0.33 0.23 0.22 0.27 0.18 0.21 0.25 0.22 0.25 0.17 0.17
47037 m1 0.0 0.01 0.0 0.0 0.02 0.04 0.02 0.09 0.06 0.06 0.12 0.14 0.07 0.12 0.11 0.11 0.09 0.04 0.04 0.01 0.0
681 m1 0.33 0.37 0.3 0.27 0.24 0.39 0.27 0.3 0.32 0.26 0.29 0.23 0.19 0.26 0.17 0.2 0.24 0.22 0.25 0.17 0.17
18154 m1 0.0 0.04 0.05 0.08 0.07 0.12 0.08 0.17 0.19 0.21 0.16 0.28 0.16 0.28 0.25 0.27 0.24 0.31 0.35 0.56 0.46
27634 m1 0.09 0.07 0.08 0.05 0.12 0.08 0.06 0.15 0.12 0.1 0.17 0.12 0.18 0.07 0.08 0.1 0.08 0.07 0.01 0.02 0.0
37022 m1 0.47 0.51 0.46 0.55 0.51 0.52 0.5 0.59 0.51 0.46 0.58 0.62 0.5 0.53 0.48 0.52 0.51 0.44 0.42 0.59 0.46
48618 m1 0.18 0.11 0.2 0.14 0.19 0.05 0.17 0.09 0.16 0.29 0.1 0.17 0.29 0.2 0.33 0.27 0.26 0.35 0.33 0.24 0.37
27236 m1 0.53 0.49 0.54 0.45 0.49 0.48 0.5 0.41 0.49 0.54 0.42 0.38 0.5 0.46 0.5 0.47 0.49 0.56 0.58 0.41 0.54
23444 m1 0.02 0.06 0.13 0.05 0.09 0.01 0.07 0.05 0.02 0.11 0.05 0.03 0.08 0.04 0.0 0.02 0.01 0.03 0.09 0.05 0.05
15636 m2 0.47 0.5 0.43 0.55 0.51 0.52 0.5 0.59 0.51 0.46 0.58 0.62 0.5 0.54 0.5 0.53 0.51 0.44 0.42 0.59 0.46
41412 m2 0.47 0.51 0.46 0.55 0.5 0.52 0.5 0.59 0.51 0.46 0.58 0.62 0.5 0.53 0.48 0.52 0.51 0.44 0.42 0.59 0.46
