Pos. Mut_type p_1 p_2 p_3 p_4 p_5 p_6 p_7 p_8 p_9 p_10 p_11 p_12 p_13 p_14 p_15 p_16 p_17 p_18 p_19 p_20 p_21
31214 m1 0.06 0.0 0.04 0.16 0.07 0.12 0.05 0.06 0.03 0.02 0.0 0.05 0.02 0.01 0.01 0.02 0.02 0.01 0.0 0.0 0.0
32387 m1 0.1 0.07 0.12 0.07 0.06 0.04 0.14 0.07 0.13 0.07 0.12 0.06 0.09 0.06 0.03 0.13 0.05 0.05 0.02 0.0 0.02
3451 m1 0.07 0.1 0.05 0.09 0.1 0.14 0.1 0.06 0.02 0.08 0.06 0.01 0.09 0.04 0.02 0.04 0.02 0.0 0.0 0.0 0.0
25723 m1 0.29 0.31 0.21 0.24 0.25 0.26 0.22 0.18 0.22 0.26 0.2 0.18 0.24 0.21 0.23 0.17 0.11 0.07 0.1 0.03 0.06
48476 m1 0.04 0.04 0.07 0.05 0.06 0.03 0.11 0.07 0.12 0.07 0.12 0.06 0.09 0.06 0.03 0.13 0.05 0.05 0.02 0.0 0.02
6836 m1 0.0 0.0 0.03 0.04 0.01 0.08 0.01 0.04 0.0 0.06 0.1 0.03 0.02 0.01 0.0 0.02 0.01 0.0 0.0 0.02 0.0
36969 m1 0.1 0.11 0.12 0.11 0.14 0.12 0.1 0.11 0.16 0.17 0.14 0.16 0.15 0.16 0.21 0.12 0.09 0.06 0.1 0.03 0.06
23247 m1 0.04 0.08 0.06 0.04 0.09 0.08 0.12 0.16 0.19 0.13 0.07 0.07 0.06 0.03 0.05 0.02 0.02 0.0 0.02 0.0 0.0
7919 m1 0.06 0.03 0.04 0.05 0.04 0.01 0.01 0.0 0.0 0.0 0.0 0.0 0.0 0.0 0.0 0.0 0.0 0.0 0.0 0.0 0.0
42949 m1 0.09 0.1 0.11 0.09 0.1 0.06 0.1 0.04 0.05 0.03 0.01 0.03 0.03 0.0 0.02 0.0 0.01 0.0 0.0 0.0 0.0
30078 m1 0.06 0.03 0.04 0.05 0.04 0.0 0.01 0.0 0.0 0.0 0.0 0.0 0.0 0.0 0.0 0.0 0.0 0.0 0.0 0.0 0.0
10628 m1 0.09 0.09 0.11 0.09 0.1 0.06 0.1 0.04 0.05 0.03 0.01 0.03 0.03 0.0 0.02 0.0 0.01 0.0 0.0 0.0 0.0
42653 m1 0.0 0.02 0.06 0.04 0.11 0.0 0.04 0.02 0.04 0.02 0.04 0.04 0.02 0.0 0.0 0.0 0.0 0.0 0.0 0.0 0.0
44293 m1 0.87 0.92 0.83 0.92 0.92 0.91 0.86 0.91 0.85 0.92 0.82 0.84 0.86 0.92 0.94 0.83 0.95 0.94 0.98 1.0 0.98
28381 m1 0.1 0.11 0.12 0.11 0.14 0.12 0.1 0.11 0.16 0.17 0.14 0.16 0.15 0.16 0.21 0.12 0.09 0.06 0.1 0.03 0.06
21792 m1 0.06 0.0 0.04 0.16 0.07 0.12 0.05 0.06 0.03 0.02 0.0 0.05 0.02 0.01 0.01 0.02 0.02 0.01 0.0 0.0 0.0
18102 m1 0.0 0.0 0.02 0.01 0.05 0.02 0.04 0.04 0.03 0.08 0.03 0.02 0.03 0.02 0.0 0.0 0.0 0.0 0.01 0.0 0.0
24795 m1 0.05 0.06 0.04 0.04 0.02 0.07 0.05 0.06 0.07 0.04 0.02 0.01 0.0 0.01 0.02 0.0 0.01 0.01 0.01 0.0 0.0
8575 m1 0.09 0.13 0.12 0.11 0.18 0.18 0.13 0.16 0.16 0.08 0.09 0.07 0.04 0.02 0.02 0.0 0.01 0.01 0.01 0.0 0.0
46198 m1 0.1 0.11 0.12 0.11 0.14 0.1 0.09 0.11 0.15 0.17 0.13 0.16 0.12 0.14 0.21 0.11 0.08 0.05 0.08 0.02 0.06
3662 m1 0.0 0.0 0.0 0.0 0.0 0.0 0.0 0.0 0.03 0.04 0.02 0.07 0.07 0.15 0.15 0.2 0.29 0.18 0.24 0.27 0.26
1068 m1 0.26 0.27 0.25 0.36 0.34 0.35 0.25 0.31 0.23 0.15 0.15 0.19 0.11 0.11 0.07 0.06 0.05 0.04 0.01 0.01 0.01
45109 m1 0.06 0.0 0.01 0.0 0.04 0.02 0.03 0.03 0.04 0.02 0.0 0.03 0.02 0.01 0.04 0.06 0.01 0.02 0.03 0.0 0.02
10327 m2 0.0 0.0 0.0 0.0 0.0 0.0 0.03 0.02 0.07 0.15 0.17 0.28 0.33 0.52 0.53 0.55 0.75 0.83 0.85 0.95 0.92
27711 m1 0.06 0.0 0.04 0.16 0.07 0.12 0.05 0.06 0.03 0.02 0.0 0.05 0.02 0.01 0.01 0.02 0.02 0.01 0.0 0.0 0.0
14922 m1 0.09 0.09 0.11 0.09 0.1 0.06 0.1 0.04 0.05 0.03 0.01 0.03 0.03 0.0 0.02 0.0 0.01 0.0 0.0 0.0 0.0
14078 m1 0.09 0.09 0.11 0.09 0.1 0.06 0.1 0.04 0.05 0.03 0.01 0.03 0.03 0.0 0.02 0.0 0.01 0.0 0.0 0.0 0.0
18802 m1 0.36 0.38 0.37 0.46 0.48 0.47 0.38 0.44 0.46 0.46 0.44 0.62 0.58 0.78 0.78 0.69 0.88 0.91 0.96 0.98 0.98
20046 m1 0.06 0.03 0.04 0.05 0.04 0.0 0.01 0.0 0.0 0.0 0.0 0.0 0.0 0.0 0.0 0.0 0.0 0.0 0.0 0.0 0.0
38969 m1 0.13 0.13 0.14 0.07 0.12 0.11 0.17 0.21 0.19 0.14 0.12 0.09 0.07 0.03 0.06 0.04 0.02 0.0 0.02 0.0 0.0
7960 m1 0.0 0.02 0.03 0.02 0.03 0.0 0.0 0.0 0.01 0.02 0.04 0.0 0.04 0.04 0.02 0.07 0.03 0.05 0.02 0.0 0.02
47100 m1 0.1 0.12 0.11 0.17 0.11 0.13 0.09 0.16 0.12 0.2 0.2 0.09 0.11 0.07 0.06 0.05 0.02 0.02 0.0 0.02 0.0
8277 m1 0.0 0.01 0.02 0.01 0.05 0.03 0.04 0.07 0.03 0.09 0.07 0.03 0.03 0.02 0.0 0.0 0.0 0.0 0.01 0.0 0.0
8897 m1 0.36 0.38 0.37 0.47 0.48 0.47 0.35 0.42 0.39 0.31 0.28 0.34 0.26 0.26 0.27 0.16 0.14 0.09 0.11 0.03 0.06
1390 m1 0.48 0.48 0.43 0.51 0.5 0.48 0.42 0.45 0.43 0.33 0.3 0.37 0.27 0.28 0.29 0.21 0.14 0.11 0.1 0.04 0.07
38508 m1 0.09 0.1 0.11 0.09 0.1 0.06 0.1 0.04 0.05 0.03 0.01 0.03 0.03 0.0 0.02 0.0 0.01 0.0 0.0 0.0 0.0
3839 m1 0.13 0.14 0.12 0.14 0.16 0.17 0.21 0.13 0.15 0.16 0.18 0.07 0.18 0.1 0.05 0.17 0.07 0.05 0.02 0.0 0.02
27351 m1 0.06 0.06 0.02 0.02 0.03 0.0 0.01 0.03 0.0 0.01 0.0 0.0 0.0 0.0 0.0 0.0 0.0 0.0 0.0 0.0 0.0
31770 m1 0.9 0.93 0.88 0.93 0.94 0.96 0.86 0.93 0.87 0.93 0.88 0.94 0.91 0.94 0.97 0.87 0.95 0.95 0.98 1.0 0.98
7944 m1 0.09 0.09 0.11 0.09 0.1 0.06 0.1 0.04 0.05 0.03 0.01 0.03 0.03 0.0 0.02 0.0 0.01 0.0 0.0 0.0 0.0
28096 m1 0.0 0.0 0.0 0.0 0.0 0.0 0.0 0.0 0.01 0.06 0.02 0.03 0.02 0.01 0.01 0.01 0.03 0.05 0.04 0.03 0.02
22788 m1 0.04 0.09 0.03 0.09 0.1 0.13 0.1 0.06 0.02 0.07 0.06 0.01 0.09 0.04 0.02 0.04 0.02 0.0 0.0 0.0 0.0
19994 m1 0.04 0.06 0.03 0.03 0.05 0.0 0.0 0.01 0.01 0.02 0.01 0.0 0.0 0.02 0.02 0.0 0.0 0.0 0.0 0.0 0.0
13685 m1 0.65 0.65 0.59 0.66 0.66 0.67 0.66 0.61 0.58 0.49 0.51 0.44 0.45 0.37 0.33 0.36 0.21 0.15 0.13 0.03 0.08
14251 m1 0.35 0.35 0.41 0.34 0.34 0.33 0.34 0.39 0.42 0.51 0.49 0.56 0.55 0.63 0.67 0.64 0.79 0.85 0.87 0.97 0.92
30178 m1 0.04 0.08 0.06 0.04 0.09 0.08 0.12 0.16 0.19 0.13 0.07 0.07 0.06 0.03 0.05 0.02 0.02 0.0 0.02 0.0 0.0
41492 m1 0.0 0.02 0.06 0.04 0.11 0.0 0.04 0.02 0.04 0.02 0.04 0.04 0.02 0.0 0.0 0.0 0.0 0.0 0.0 0.0 0.0
38168 m1 0.1 0.12 0.11 0.17 0.11 0.13 0.09 0.16 0.12 0.2 0.2 0.09 0.11 0.07 0.06 0.05 0.02 0.02 0.0 0.02 0.0
1644 m1 0.09 0.13 0.12 0.11 0.18 0.18 0.13 0.16 0.16 0.08 0.09 0.07 0.04 0.03 0.03 0.02 0.01 0.02 0.01 0.01 0.01
18201 m1 0.36 0.38 0.37 0.46 0.48 0.47 0.35 0.42 0.39 0.31 0.27 0.34 0.25 0.26 0.25 0.14 0.13 0.08 0.11 0.03 0.06
25555 m1 0.0 0.0 0.0 0.0 0.0 0.0 0.0 0.0 0.0 0.0 0.0 0.0 0.01 0.01 0.0 0.01 0.08 0.05 0.05 0.04 0.03
11947 m1 0.03 0.06 0.01 0.01 0.0 0.05 0.03 0.01 0.0 0.07 0.01 0.0 0.01 0.0 0.0 0.0 0.0 0.0 0.0 0.0 0.0
48851 m1 0.63 0.63 0.76 0.72 0.71 0.76 0.78 0.76 0.78 0.71 0.79 0.81 0.78 0.76 0.74 0.84 0.88 0.91 0.91 0.95 0.88
