13 21
10000 10010 10020 10030 10040 10050 10060 10070 10080 10090 10100 10110 10120 10130 10140 10150 10160 10170 10180 10190 10200
100 100 100 100 100 100 100 100 100 100 100 100 100 100 100 100 100 100 100 100 100
0 0 0 0 0 0 0 0 0 0 0 0 0 0 5 5 11 14 29 33 51
100 100 100 100 100 100 100 100 100 100 100 100 100 100 100 100 100 100 100 100 100
0 0 0 0 0 0 1 3 6 3 3 0 0 0 0 0 0 0 0 0 0
100 100 100 100 100 100 100 100 100 100 100 100 100 100 100 100 100 100 100 100 100
4 6 8 1 10 5 4 6 3 13 3 4 2 0 1 1 0 0 0 0 0
100 100 100 100 100 100 100 100 100 100 100 100 100 100 100 100 100 100 100 100 100
96 94 92 99 90 95 96 94 97 87 97 98 98 100 99 99 100 100 100 100 100
100 100 100 100 100 100 100 100 100 100 100 100 100 100 100 100 100 100 100 100 100
0 0 0 0 0 1 1 4 4 6 8 12 17 19 13 13 28 23 28 21 18
100 100 100 100 100 100 100 100 100 100 100 100 100 100 100 100 100 100 100 100 100
11 6 2 4 2 0 1 0 0 0 0 0 0 0 0 0 0 0 0 0 0
100 100 100 100 100 100 100 100 100 100 100 100 100 100 100 100 100 100 100 100 100
0 0 0 0 0 0 0 0 0 1 0 3 2 4 0 3 7 1 2 1 3
100 100 100 100 100 100 100 100 100 100 100 100 100 100 100 100 100 100 100 100 100
96 94 92 99 90 95 96 94 97 87 97 96 98 100 99 99 100 100 100 100 100
100 100 100 100 100 100 100 100 100 100 100 100 100 100 100 100 100 100 100 100 100
4 6 8 1 10 5 4 6 3 13 3 2 2 0 1 1 0 0 0 0 0
100 100 100 100 100 100 100 100 100 100 100 100 100 100 100 100 100 100 100 100 100
96 94 92 99 90 95 96 94 97 87 97 98 98 100 99 99 100 100 100 100 100
100 100 100 100 100 100 100 100 100 100 100 100 100 100 100 100 100 100 100 100 100
0 0 0 1 0 1 0 1 7 13 15 17 15 25 19 27 23 30 17 20 15
100 100 100 100 100 100 100 100 100 100 100 100 100 100 100 100 100 100 100 100 100
0 0 0 0 0 0 0 1 3 4 7 11 15 27 32 41 39 37 52 53 62
100 100 100 100 100 100 100 100 100 100 100 100 100 100 100 100 100 100 100 100 100
0 0 0 0 0 0 1 1 2 7 4 0 1 0 0 0 0 0 0 0 0
