243 21
10000 10010 10020 10030 10040 10050 10060 10070 10080 10090 10100 10110 10120 10130 10140 10150 10160 10170 10180 10190 10200
100 100 100 100 100 100 100 100 100 100 100 100 100 100 100 100 100 100 100 100 100
40 61 81 95 97 98 99 100 100 100 100 100 100 100 100 100 100 100 100 100 100
100 100 100 100 100 100 100 100 100 100 100 100 100 100 100 100 100 100 100 100 100
4 11 7 7 10 9 8 11 10 10 14 15 21 15 18 18 12 10 14 3 13
100 100 100 100 100 100 100 100 100 100 100 100 100 100 100 100 100 100 100 100 100
3 3 2 3 4 6 8 5 8 9 7 9 11 10 14 10 12 14 7 8 9
100 100 100 100 100 100 100 100 100 100 100 100 100 100 100 100 100 100 100 100 100
44 26 12 5 3 2 1 0 0 0 0 0 0 0 0 0 0 0 0 0 0
100 100 100 100 100 100 100 100 100 100 100 100 100 100 100 100 100 100 100 100 100
7 3 0 1 0 0 0 0 0 0 0 0 0 0 0 0 0 0 0 0 0
100 100 100 100 100 100 100 100 100 100 100 100 100 100 100 100 100 100 100 100 100
4 7 1 0 0 0 0 0 0 0 0 0 0 0 0 0 0 0 0 0 0
100 100 100 100 100 100 100 100 100 100 100 100 100 100 100 100 100 100 100 100 100
0 0 3 6 4 10 12 5 9 13 8 14 14 10 15 10 13 13 8 7 10
100 100 100 100 100 100 100 100 100 100 100 100 100 100 100 100 100 100 100 100 100
11 20 16 36 20 13 19 28 17 19 11 13 14 12 15 6 8 4 3 4 5
100 100 100 100 100 100 100 100 100 100 100 100 100 100 100 100 100 100 100 100 100
7 3 0 1 0 0 0 0 0 0 0 0 0 0 0 0 0 0 0 0 0
100 100 100 100 100 100 100 100 100 100 100 100 100 100 100 100 100 100 100 100 100
7 3 0 1 0 0 0 0 0 0 0 0 0 0 0 0 0 0 0 0 0
100 100 100 100 100 100 100 100 100 100 100 100 100 100 100 100 100 100 100 100 100
0 0 0 0 0 0 0 0 0 0 0 0 2 1 1 0 1 4 4 2 13
100 100 100 100 100 100 100 100 100 100 100 100 100 100 100 100 100 100 100 100 100
12 10 2 6 1 0 0 0 0 0 0 0 0 0 0 0 0 0 0 0 0
100 100 100 100 100 100 100 100 100 100 100 100 100 100 100 100 100 100 100 100 100
6 5 3 0 1 1 0 0 0 0 0 0 0 0 0 0 0 0 0 0 0
100 100 100 100 100 100 100 100 100 100 100 100 100 100 100 100 100 100 100 100 100
11 8 6 2 1 1 0 0 0 0 0 0 0 0 0 0 0 0 0 0 0
100 100 100 100 100 100 100 100 100 100 100 100 100 100 100 100 100 100 100 100 100
72 77 90 98 99 99 100 100 100 100 100 100 100 100 100 100 100 100 100 100 100
100 100 100 100 100 100 100 100 100 100 100 100 100 100 100 100 100 100 100 100 100
19 14 8 2 1 1 0 0 0 0 0 0 0 0 0 0 0 0 0 0 0
100 100 100 100 100 100 100 100 100 100 100 100 100 100 100 100 100 100 100 100 100
7 4 3 3 4 6 8 5 8 9 7 9 11 10 14 10 12 14 7 8 9
100 100 100 100 100 100 100 100 100 100 100 100 100 100 100 100 100 100 100 100 100
11 8 6 2 1 1 0 0 0 0 0 0 0 0 0 0 0 0 0 0 0
100 100 100 100 100 100 100 100 100 100 100 100 100 100 100 100 100 100 100 100 100
0 0 1 3 0 4 4 2 2 4 5 6 3 1 1 3 2 1 0 1 1
100 100 100 100 100 100 100 100 100 100 100 100 100 100 100 100 100 100 100 100 100
40 25 9 4 3 2 1 0 0 0 0 0 0 0 0 0 0 0 0 0 0
100 100 100 100 100 100 100 100 100 100 100 100 100 100 100 100 100 100 100 100 100
6 3 0 1 0 0 0 0 0 0 0 0 0 0 0 0 0 0 0 0 0
100 100 100 100 100 100 100 100 100 100 100 100 100 100 100 100 100 100 100 100 100
5 8 2 3 1 0 0 0 0 0 0 0 0 0 0 0 0 0 0 0 0
100 100 100 100 100 100 100 100 100 100 100 100 100 100 100 100 100 100 100 100 100
9 9 2 0 0 0 0 0 0 0 0 0 0 0 0 0 0 0 0 0 0
100 100 100 100 100 100 100 100 100 100 100 100 100 100 100 100 100 100 100 100 100
28 15 6 2 2 1 1 0 0 0 0 0 0 0 0 0 0 0 0 0 0
100 100 100 100 100 100 100 100 100 100 100 100 100 100 100 100 100 100 100 100 100
8 7 1 4 1 0 0 0 0 0 0 0 0 0 0 0 0 0 0 0 0
100 100 100 100 100 100 100 100 100 100 100 100 100 100 100 100 100 100 100 100 100
1 5 2 13 3 4 6 6 8 11 6 3 5 4 3 2 1 0 0 2 1
100 100 100 100 100 100 100 100 100 100 100 100 100 100 100 100 100 100 100 100 100
8 5 1 0 0 0 0 0 0 0 0 0 0 0 0 0 0 0 0 0 0
100 100 100 100 100 100 100 100 100 100 100 100 100 100 100 100 100 100 100 100 100
6 5 2 0 1 1 0 0 0 0 0 0 0 0 0 0 0 0 0 0 0
100 100 100 100 100 100 100 100 100 100 100 100 100 100 100 100 100 100 100 100 100
3 7 6 7 10 9 8 11 10 10 14 15 21 15 18 18 12 10 14 3 13
100 100 100 100 100 100 100 100 100 100 100 100 100 100 100 100 100 100 100 100 100
10 9 12 12 15 21 17 10 3 14 9 8 8 7 5 8 6 7 3 4 3
100 100 100 100 100 100 100 100 100 100 100 100 100 100 100 100 100 100 100 100 100
42 68 84 95 98 98 100 100 100 100 100 100 100 100 100 100 100 100 100 100 100
100 100 100 100 100 100 100 100 100 100 100 100 100 100 100 100 100 100 100 100 100
7 3 0 1 0 0 0 0 0 0 0 0 0 0 0 0 0 0 0 0 0
100 100 100 100 100 100 100 100 100 100 100 100 100 100 100 100 100 100 100 100 100
6 5 2 0 1 1 0 0 0 0 0 0 0 0 0 0 0 0 0 0 0
100 100 100 100 100 100 100 100 100 100 100 100 100 100 100 100 100 100 100 100 100
17 5 1 0 0 0 0 0 0 0 0 0 0 0 0 0 0 0 0 0 0
100 100 100 100 100 100 100 100 100 100 100 100 100 100 100 100 100 100 100 100 100
0 6 8 6 7 6 4 0 1 5 4 2 3 0 0 0 0 0 0 0 1
100 100 100 100 100 100 100 100 100 100 100 100 100 100 100 100 100 100 100 100 100
7 4 3 3 4 6 8 5 8 9 7 9 11 10 14 10 12 14 7 8 9
100 100 100 100 100 100 100 100 100 100 100 100 100 100 100 100 100 100 100 100 100
0 0 3 4 5 9 3 11 11 10 7 5 9 10 9 13 6 11 16 16 10
100 100 100 100 100 100 100 100 100 100 100 100 100 100 100 100 100 100 100 100 100
11 8 6 2 1 1 0 0 0 0 0 0 0 0 0 0 0 0 0 0 0
100 100 100 100 100 100 100 100 100 100 100 100 100 100 100 100 100 100 100 100 100
7 3 0 1 0 0 0 0 0 0 0 0 0 0 0 0 0 0 0 0 0
100 100 100 100 100 100 100 100 100 100 100 100 100 100 100 100 100 100 100 100 100
3 9 21 19 36 38 46 48 59 50 55 55 52 64 61 68 75 77 77 88 78
100 100 100 100 100 100 100 100 100 100 100 100 100 100 100 100 100 100 100 100 100
0 0 3 6 4 10 12 5 9 13 9 14 14 10 16 12 14 14 8 7 10
100 100 100 100 100 100 100 100 100 100 100 100 100 100 100 100 100 100 100 100 100
5 7 1 0 0 0 0 0 0 0 0 0 0 0 0 0 0 0 0 0 0
100 100 100 100 100 100 100 100 100 100 100 100 100 100 100 100 100 100 100 100 100
19 19 35 29 30 37 26 15 14 20 17 18 14 9 7 8 6 9 6 4 4
100 100 100 100 100 100 100 100 100 100 100 100 100 100 100 100 100 100 100 100 100
11 8 6 2 1 1 0 0 0 0 0 0 0 0 0 0 0 0 0 0 0
100 100 100 100 100 100 100 100 100 100 100 100 100 100 100 100 100 100 100 100 100
13 13 7 0 0 0 0 0 0 0 0 0 0 0 0 0 0 0 0 0 0
100 100 100 100 100 100 100 100 100 100 100 100 100 100 100 100 100 100 100 100 100
44 26 12 5 3 3 3 0 0 0 0 0 0 2 1 3 3 2 3 3 4
100 100 100 100 100 100 100 100 100 100 100 100 100 100 100 100 100 100 100 100 100
8 16 30 29 46 48 53 59 70 61 72 70 74 77 78 83 84 86 89 90 87
100 100 100 100 100 100 100 100 100 100 100 100 100 100 100 100 100 100 100 100 100
0 6 9 8 8 6 5 0 1 5 4 3 3 0 0 0 0 0 0 0 1
100 100 100 100 100 100 100 100 100 100 100 100 100 100 100 100 100 100 100 100 100
5 7 1 1 0 0 0 0 0 0 0 0 0 0 0 0 0 0 0 0 0
100 100 100 100 100 100 100 100 100 100 100 100 100 100 100 100 100 100 100 100 100
20 19 37 30 30 38 27 14 14 21 20 17 13 9 6 8 5 9 6 5 4
100 100 100 100 100 100 100 100 100 100 100 100 100 100 100 100 100 100 100 100 100
11 8 6 2 1 1 0 0 0 0 0 0 0 0 0 0 0 0 0 0 0
100 100 100 100 100 100 100 100 100 100 100 100 100 100 100 100 100 100 100 100 100
44 26 12 5 3 3 3 0 0 0 0 0 0 2 1 3 3 2 3 3 4
100 100 100 100 100 100 100 100 100 100 100 100 100 100 100 100 100 100 100 100 100
18 28 17 34 19 12 18 26 16 19 11 12 12 12 14 6 7 3 2 3 5
100 100 100 100 100 100 100 100 100 100 100 100 100 100 100 100 100 100 100 100 100
12 10 2 6 1 0 0 0 0 0 0 0 0 0 0 0 0 0 0 0 0
100 100 100 100 100 100 100 100 100 100 100 100 100 100 100 100 100 100 100 100 100
3 9 18 13 32 28 33 41 49 37 43 40 38 53 46 55 61 62 70 79 69
100 100 100 100 100 100 100 100 100 100 100 100 100 100 100 100 100 100 100 100 100
0 0 3 6 4 10 12 5 9 13 9 14 14 10 15 12 13 14 8 7 10
100 100 100 100 100 100 100 100 100 100 100 100 100 100 100 100 100 100 100 100 100
12 10 2 6 2 0 0 0 0 0 0 0 0 0 0 0 0 0 0 0 0
100 100 100 100 100 100 100 100 100 100 100 100 100 100 100 100 100 100 100 100 100
9 7 1 4 2 0 0 0 0 0 0 0 0 0 0 0 0 0 0 0 0
100 100 100 100 100 100 100 100 100 100 100 100 100 100 100 100 100 100 100 100 100
1 5 2 15 3 5 6 8 9 11 6 4 7 4 4 2 2 0 0 2 1
100 100 100 100 100 100 100 100 100 100 100 100 100 100 100 100 100 100 100 100 100
22 32 22 35 19 12 18 27 16 19 11 12 12 12 14 6 7 3 2 3 5
100 100 100 100 100 100 100 100 100 100 100 100 100 100 100 100 100 100 100 100 100
32 42 66 59 77 85 79 74 84 81 89 88 88 86 85 91 90 95 95 94 91
100 100 100 100 100 100 100 100 100 100 100 100 100 100 100 100 100 100 100 100 100
82 87 93 98 99 99 100 100 100 100 100 100 100 100 100 100 100 100 100 100 100
100 100 100 100 100 100 100 100 100 100 100 100 100 100 100 100 100 100 100 100 100
41 65 82 95 97 98 99 100 100 100 100 100 100 100 100 100 100 100 100 100 100
100 100 100 100 100 100 100 100 100 100 100 100 100 100 100 100 100 100 100 100 100
5 8 2 3 1 0 0 0 0 0 0 0 0 0 0 0 0 0 0 0 0
100 100 100 100 100 100 100 100 100 100 100 100 100 100 100 100 100 100 100 100 100
7 3 0 1 0 0 0 0 0 0 0 0 0 0 0 0 0 0 0 0 0
100 100 100 100 100 100 100 100 100 100 100 100 100 100 100 100 100 100 100 100 100
0 0 0 1 0 0 0 1 0 1 2 0 2 1 0 3 1 2 7 6 3
100 100 100 100 100 100 100 100 100 100 100 100 100 100 100 100 100 100 100 100 100
0 0 0 0 0 0 0 0 0 0 0 0 0 0 1 1 2 4 3 7 8
100 100 100 100 100 100 100 100 100 100 100 100 100 100 100 100 100 100 100 100 100
4 7 1 0 0 0 0 0 0 0 0 0 0 0 0 0 0 0 0 0 0
100 100 100 100 100 100 100 100 100 100 100 100 100 100 100 100 100 100 100 100 100
22 32 22 34 19 12 18 26 16 19 11 12 12 12 14 6 7 3 2 3 5
100 100 100 100 100 100 100 100 100 100 100 100 100 100 100 100 100 100 100 100 100
41 25 12 5 3 3 1 0 0 0 0 0 0 0 0 0 0 0 0 0 0
100 100 100 100 100 100 100 100 100 100 100 100 100 100 100 100 100 100 100 100 100
26 13 5 2 1 1 0 0 0 0 0 0 0 0 0 0 0 0 0 0 0
100 100 100 100 100 100 100 100 100 100 100 100 100 100 100 100 100 100 100 100 100
3 2 2 3 4 6 8 5 8 9 7 9 11 10 14 10 12 14 7 8 9
100 100 100 100 100 100 100 100 100 100 100 100 100 100 100 100 100 100 100 100 100
38 59 81 92 96 98 100 100 100 100 100 100 100 100 100 100 100 100 100 100 100
100 100 100 100 100 100 100 100 100 100 100 100 100 100 100 100 100 100 100 100 100
20 19 37 30 30 38 27 14 14 21 20 17 13 9 6 8 5 9 6 5 4
100 100 100 100 100 100 100 100 100 100 100 100 100 100 100 100 100 100 100 100 100
14 3 0 0 0 0 0 0 0 0 0 0 0 0 0 0 0 0 0 0 0
100 100 100 100 100 100 100 100 100 100 100 100 100 100 100 100 100 100 100 100 100
0 6 9 8 8 6 5 0 1 5 4 3 3 0 0 0 0 0 0 0 1
100 100 100 100 100 100 100 100 100 100 100 100 100 100 100 100 100 100 100 100 100
23 26 52 44 61 66 62 55 65 61 67 61 53 61 51 66 68 70 75 85 73
100 100 100 100 100 100 100 100 100 100 100 100 100 100 100 100 100 100 100 100 100
7 4 3 3 4 6 8 5 8 9 7 9 11 10 14 10 12 14 7 8 9
100 100 100 100 100 100 100 100 100 100 100 100 100 100 100 100 100 100 100 100 100
9 7 1 4 1 0 0 0 0 0 0 0 0 0 0 0 0 0 0 0 0
100 100 100 100 100 100 100 100 100 100 100 100 100 100 100 100 100 100 100 100 100
7 4 3 3 4 6 8 5 8 9 7 9 11 10 14 10 12 14 7 8 9
100 100 100 100 100 100 100 100 100 100 100 100 100 100 100 100 100 100 100 100 100
7 5 1 0 0 0 0 0 0 0 0 0 0 0 0 0 0 0 0 0 0
100 100 100 100 100 100 100 100 100 100 100 100 100 100 100 100 100 100 100 100 100
82 87 93 98 99 99 100 100 100 100 100 100 100 100 100 100 100 100 100 100 100
100 100 100 100 100 100 100 100 100 100 100 100 100 100 100 100 100 100 100 100 100
6 4 4 0 0 0 0 0 0 0 0 0 0 0 0 0 0 0 0 0 0
100 100 100 100 100 100 100 100 100 100 100 100 100 100 100 100 100 100 100 100 100
6 3 4 0 0 0 0 0 0 0 0 0 0 0 0 0 0 0 0 0 0
100 100 100 100 100 100 100 100 100 100 100 100 100 100 100 100 100 100 100 100 100
6 3 4 0 0 0 0 0 0 0 0 0 0 0 0 0 0 0 0 0 0
100 100 100 100 100 100 100 100 100 100 100 100 100 100 100 100 100 100 100 100 100
5 8 2 3 1 0 0 0 0 0 0 0 0 0 0 0 0 0 0 0 0
100 100 100 100 100 100 100 100 100 100 100 100 100 100 100 100 100 100 100 100 100
13 7 5 1 0 0 0 0 0 0 0 0 0 0 0 0 0 0 0 0 0
100 100 100 100 100 100 100 100 100 100 100 100 100 100 100 100 100 100 100 100 100
12 10 2 6 1 0 0 0 0 0 0 0 0 0 0 0 0 0 0 0 0
100 100 100 100 100 100 100 100 100 100 100 100 100 100 100 100 100 100 100 100 100
22 32 22 35 19 12 18 27 16 19 11 12 12 12 14 6 7 3 2 3 5
100 100 100 100 100 100 100 100 100 100 100 100 100 100 100 100 100 100 100 100 100
44 26 12 5 3 3 3 0 0 0 0 0 0 2 1 3 3 2 3 3 4
100 100 100 100 100 100 100 100 100 100 100 100 100 100 100 100 100 100 100 100 100
0 3 3 1 3 5 4 7 3 6 9 9 20 14 16 14 11 8 12 3 13
100 100 100 100 100 100 100 100 100 100 100 100 100 100 100 100 100 100 100 100 100
12 10 2 6 1 0 0 0 0 0 0 0 0 0 0 0 0 0 0 0 0
100 100 100 100 100 100 100 100 100 100 100 100 100 100 100 100 100 100 100 100 100
40 25 9 4 3 2 1 0 0 0 0 0 0 0 0 0 0 0 0 0 0
100 100 100 100 100 100 100 100 100 100 100 100 100 100 100 100 100 100 100 100 100
72 77 90 98 99 99 100 100 100 100 100 100 100 100 100 100 100 100 100 100 100
100 100 100 100 100 100 100 100 100 100 100 100 100 100 100 100 100 100 100 100 100
7 6 9 8 10 11 10 5 3 7 10 2 4 4 3 6 2 4 2 4 2
100 100 100 100 100 100 100 100 100 100 100 100 100 100 100 100 100 100 100 100 100
23 28 56 46 62 70 64 57 65 62 68 63 54 63 53 66 68 72 76 85 73
100 100 100 100 100 100 100 100 100 100 100 100 100 100 100 100 100 100 100 100 100
5 7 1 1 0 0 0 0 0 0 0 0 0 0 0 0 0 0 0 0 0
100 100 100 100 100 100 100 100 100 100 100 100 100 100 100 100 100 100 100 100 100
5 8 2 3 1 0 0 0 0 0 0 0 0 0 0 0 0 0 0 0 0
100 100 100 100 100 100 100 100 100 100 100 100 100 100 100 100 100 100 100 100 100
6 3 4 0 0 0 0 0 0 0 0 0 0 0 0 0 0 0 0 0 0
100 100 100 100 100 100 100 100 100 100 100 100 100 100 100 100 100 100 100 100 100
3 7 7 7 10 9 8 11 10 10 14 15 21 15 18 18 14 12 15 4 13
100 100 100 100 100 100 100 100 100 100 100 100 100 100 100 100 100 100 100 100 100
82 88 91 95 95 93 92 95 92 91 93 91 89 90 86 90 88 86 93 92 91
100 100 100 100 100 100 100 100 100 100 100 100 100 100 100 100 100 100 100 100 100
11 8 6 2 1 1 0 0 0 0 0 0 0 0 0 0 0 0 0 0 0
100 100 100 100 100 100 100 100 100 100 100 100 100 100 100 100 100 100 100 100 100
0 6 9 8 8 6 5 0 1 5 4 3 3 0 0 0 0 0 0 0 1
100 100 100 100 100 100 100 100 100 100 100 100 100 100 100 100 100 100 100 100 100
11 8 6 2 1 1 0 0 0 0 0 0 0 0 0 0 0 0 0 0 0
100 100 100 100 100 100 100 100 100 100 100 100 100 100 100 100 100 100 100 100 100
3 3 2 3 4 6 8 4 7 9 4 7 10 9 13 9 11 12 6 6 9
100 100 100 100 100 100 100 100 100 100 100 100 100 100 100 100 100 100 100 100 100
3 9 18 13 32 28 33 41 49 37 43 40 38 53 46 55 61 62 70 79 68
100 100 100 100 100 100 100 100 100 100 100 100 100 100 100 100 100 100 100 100 100
47 26 12 5 3 2 1 0 0 0 0 0 0 0 0 0 0 0 0 0 0
100 100 100 100 100 100 100 100 100 100 100 100 100 100 100 100 100 100 100 100 100
11 8 6 2 1 1 0 0 0 0 0 0 0 0 0 0 0 0 0 0 0
100 100 100 100 100 100 100 100 100 100 100 100 100 100 100 100 100 100 100 100 100
82 87 93 98 99 99 100 100 100 100 100 100 100 100 100 100 100 100 100 100 100
100 100 100 100 100 100 100 100 100 100 100 100 100 100 100 100 100 100 100 100 100
74 67 77 63 76 84 81 72 79 79 86 85 87 88 85 92 90 93 95 96 95
100 100 100 100 100 100 100 100 100 100 100 100 100 100 100 100 100 100 100 100 100
47 26 12 5 3 2 1 0 0 0 0 0 0 0 0 0 0 0 0 0 0
100 100 100 100 100 100 100 100 100 100 100 100 100 100 100 100 100 100 100 100 100
7 5 1 0 0 0 0 0 0 0 0 0 0 0 0 0 0 0 0 0 0
100 100 100 100 100 100 100 100 100 100 100 100 100 100 100 100 100 100 100 100 100
11 8 6 2 1 1 0 0 0 0 0 0 0 0 0 0 0 0 0 0 0
100 100 100 100 100 100 100 100 100 100 100 100 100 100 100 100 100 100 100 100 100
11 8 6 2 1 1 0 0 0 0 0 0 0 0 0 0 0 0 0 0 0
100 100 100 100 100 100 100 100 100 100 100 100 100 100 100 100 100 100 100 100 100
9 20 16 37 24 16 19 28 21 21 14 15 13 12 15 8 10 7 5 4 5
100 100 100 100 100 100 100 100 100 100 100 100 100 100 100 100 100 100 100 100 100
3 9 18 13 32 28 33 41 49 37 43 40 38 53 45 55 61 62 70 79 68
100 100 100 100 100 100 100 100 100 100 100 100 100 100 100 100 100 100 100 100 100
0 0 3 6 4 10 12 5 9 13 8 14 14 10 15 10 13 13 8 7 10
100 100 100 100 100 100 100 100 100 100 100 100 100 100 100 100 100 100 100 100 100
11 8 6 2 1 1 0 0 0 0 0 0 0 0 0 0 0 0 0 0 0
100 100 100 100 100 100 100 100 100 100 100 100 100 100 100 100 100 100 100 100 100
7 5 3 3 4 6 8 4 7 9 4 7 10 9 13 9 11 12 6 6 9
100 100 100 100 100 100 100 100 100 100 100 100 100 100 100 100 100 100 100 100 100
13 22 30 29 43 44 52 57 65 59 70 67 74 77 77 81 81 82 86 89 87
100 100 100 100 100 100 100 100 100 100 100 100 100 100 100 100 100 100 100 100 100
13 22 30 29 43 44 52 57 65 59 70 67 74 77 77 81 81 82 86 89 87
100 100 100 100 100 100 100 100 100 100 100 100 100 100 100 100 100 100 100 100 100
37 22 8 2 3 2 1 0 0 0 0 0 0 0 0 0 0 0 0 0 0
100 100 100 100 100 100 100 100 100 100 100 100 100 100 100 100 100 100 100 100 100
0 0 3 6 4 10 12 5 9 13 8 14 14 10 15 10 13 13 8 7 10
100 100 100 100 100 100 100 100 100 100 100 100 100 100 100 100 100 100 100 100 100
32 42 66 59 77 85 79 74 84 81 89 88 88 86 85 91 90 95 95 94 91
100 100 100 100 100 100 100 100 100 100 100 100 100 100 100 100 100 100 100 100 100
2 0 3 3 2 5 4 2 1 7 2 4 1 2 1 2 3 3 1 1 1
100 100 100 100 100 100 100 100 100 100 100 100 100 100 100 100 100 100 100 100 100
72 77 90 98 99 99 100 100 100 100 100 100 100 100 100 100 100 100 100 100 100
100 100 100 100 100 100 100 100 100 100 100 100 100 100 100 100 100 100 100 100 100
11 8 6 2 1 1 0 0 0 0 0 0 0 0 0 0 0 0 0 0 0
100 100 100 100 100 100 100 100 100 100 100 100 100 100 100 100 100 100 100 100 100
1 9 6 26 10 13 12 15 15 14 10 7 7 6 5 5 4 4 3 3 1
100 100 100 100 100 100 100 100 100 100 100 100 100 100 100 100 100 100 100 100 100
0 0 0 0 0 0 0 0 1 0 0 0 2 1 1 0 1 4 4 2 13
100 100 100 100 100 100 100 100 100 100 100 100 100 100 100 100 100 100 100 100 100
40 25 9 4 3 2 1 0 0 0 0 0 0 0 0 0 0 0 0 0 0
100 100 100 100 100 100 100 100 100 100 100 100 100 100 100 100 100 100 100 100 100
3 2 2 3 4 6 8 5 8 9 7 9 11 10 14 10 12 14 7 8 9
100 100 100 100 100 100 100 100 100 100 100 100 100 100 100 100 100 100 100 100 100
32 42 66 61 78 85 79 74 84 81 89 88 88 86 85 91 90 95 95 94 91
100 100 100 100 100 100 100 100 100 100 100 100 100 100 100 100 100 100 100 100 100
9 9 2 0 0 0 0 0 0 0 0 0 0 0 0 0 0 0 0 0 0
100 100 100 100 100 100 100 100 100 100 100 100 100 100 100 100 100 100 100 100 100
17 19 35 29 30 36 26 15 14 20 16 18 13 9 7 8 6 9 6 4 4
100 100 100 100 100 100 100 100 100 100 100 100 100 100 100 100 100 100 100 100 100
4 11 7 7 10 9 8 11 10 10 14 15 21 15 18 18 12 10 14 3 13
100 100 100 100 100 100 100 100 100 100 100 100 100 100 100 100 100 100 100 100 100
44 26 12 5 3 3 3 0 0 0 0 0 0 2 1 3 3 2 3 3 4
100 100 100 100 100 100 100 100 100 100 100 100 100 100 100 100 100 100 100 100 100
43 68 84 95 98 98 100 100 100 100 100 100 100 100 100 100 100 100 100 100 100
100 100 100 100 100 100 100 100 100 100 100 100 100 100 100 100 100 100 100 100 100
42 26 12 5 3 3 3 0 0 0 0 0 0 2 1 3 3 2 3 3 4
100 100 100 100 100 100 100 100 100 100 100 100 100 100 100 100 100 100 100 100 100
0 3 2 10 2 4 3 3 1 1 1 1 1 2 1 0 0 0 0 0 0
100 100 100 100 100 100 100 100 100 100 100 100 100 100 100 100 100 100 100 100 100
40 61 81 95 97 98 99 100 100 100 100 100 100 100 100 100 100 100 100 100 100
100 100 100 100 100 100 100 100 100 100 100 100 100 100 100 100 100 100 100 100 100
22 32 22 36 20 12 18 26 16 19 11 12 12 12 14 6 7 3 2 3 5
100 100 100 100 100 100 100 100 100 100 100 100 100 100 100 100 100 100 100 100 100
39 20 9 3 1 1 0 0 0 0 0 0 0 0 0 0 0 0 0 0 0
100 100 100 100 100 100 100 100 100 100 100 100 100 100 100 100 100 100 100 100 100
11 8 6 2 1 1 0 0 0 0 0 0 0 0 0 0 0 0 0 0 0
100 100 100 100 100 100 100 100 100 100 100 100 100 100 100 100 100 100 100 100 100
11 8 6 2 1 1 0 0 0 0 0 0 0 0 0 0 0 0 0 0 0
100 100 100 100 100 100 100 100 100 100 100 100 100 100 100 100 100 100 100 100 100
44 26 12 5 3 3 3 0 0 0 0 0 0 2 1 3 3 2 3 3 4
100 100 100 100 100 100 100 100 100 100 100 100 100 100 100 100 100 100 100 100 100
53 75 90 97 99 99 100 100 100 100 100 100 100 100 100 100 100 100 100 100 100
100 100 100 100 100 100 100 100 100 100 100 100 100 100 100 100 100 100 100 100 100
19 7 3 0 1 0 1 0 0 0 0 0 0 0 0 0 0 0 0 0 0
100 100 100 100 100 100 100 100 100 100 100 100 100 100 100 100 100 100 100 100 100
12 10 2 6 1 0 0 0 0 0 0 0 0 0 0 0 0 0 0 0 0
100 100 100 100 100 100 100 100 100 100 100 100 100 100 100 100 100 100 100 100 100
3 9 21 19 36 38 46 47 59 50 55 55 52 64 61 68 75 77 77 88 78
100 100 100 100 100 100 100 100 100 100 100 100 100 100 100 100 100 100 100 100 100
51 30 17 5 3 2 1 0 0 0 0 0 0 0 0 0 0 0 0 0 0
100 100 100 100 100 100 100 100 100 100 100 100 100 100 100 100 100 100 100 100 100
4 9 20 15 32 30 35 42 52 38 49 41 39 54 45 56 62 63 69 82 68
100 100 100 100 100 100 100 100 100 100 100 100 100 100 100 100 100 100 100 100 100
24 33 23 37 24 16 19 28 21 21 14 15 13 12 15 8 10 7 6 6 5
100 100 100 100 100 100 100 100 100 100 100 100 100 100 100 100 100 100 100 100 100
2 7 7 4 5 1 4 8 2 1 2 1 2 2 2 0 1 0 0 0 0
100 100 100 100 100 100 100 100 100 100 100 100 100 100 100 100 100 100 100 100 100
36 57 80 92 95 98 99 100 100 100 100 100 100 100 100 100 100 100 100 100 100
100 100 100 100 100 100 100 100 100 100 100 100 100 100 100 100 100 100 100 100 100
6 7 3 1 1 1 0 0 0 0 0 0 0 0 0 0 0 0 0 0 0
100 100 100 100 100 100 100 100 100 100 100 100 100 100 100 100 100 100 100 100 100
9 9 2 0 0 0 0 0 0 0 0 0 0 0 0 0 0 0 0 0 0
100 100 100 100 100 100 100 100 100 100 100 100 100 100 100 100 100 100 100 100 100
12 10 2 6 2 0 0 0 0 0 0 0 0 0 0 0 0 0 0 0 0
100 100 100 100 100 100 100 100 100 100 100 100 100 100 100 100 100 100 100 100 100
44 26 12 5 3 2 1 0 0 0 0 0 0 0 0 0 0 0 0 0 0
100 100 100 100 100 100 100 100 100 100 100 100 100 100 100 100 100 100 100 100 100
7 3 0 1 0 0 0 0 0 0 0 0 0 0 0 0 0 0 0 0 0
100 100 100 100 100 100 100 100 100 100 100 100 100 100 100 100 100 100 100 100 100
11 8 6 2 1 1 0 0 0 0 0 0 0 0 0 0 0 0 0 0 0
100 100 100 100 100 100 100 100 100 100 100 100 100 100 100 100 100 100 100 100 100
2 7 6 5 10 9 6 11 9 9 14 15 21 14 17 17 12 10 14 3 13
100 100 100 100 100 100 100 100 100 100 100 100 100 100 100 100 100 100 100 100 100
12 10 2 6 1 0 0 0 0 0 0 0 0 0 0 0 0 0 0 0 0
100 100 100 100 100 100 100 100 100 100 100 100 100 100 100 100 100 100 100 100 100
11 8 6 2 1 1 0 0 0 0 0 0 0 0 0 0 0 0 0 0 0
100 100 100 100 100 100 100 100 100 100 100 100 100 100 100 100 100 100 100 100 100
7 5 1 0 0 0 0 0 0 0 0 0 0 0 0 0 0 0 0 0 0
100 100 100 100 100 100 100 100 100 100 100 100 100 100 100 100 100 100 100 100 100
11 8 6 2 1 1 0 0 0 0 0 0 0 0 0 0 0 0 0 0 0
100 100 100 100 100 100 100 100 100 100 100 100 100 100 100 100 100 100 100 100 100
9 19 15 34 19 12 18 26 16 19 11 12 12 12 14 6 7 3 2 3 5
100 100 100 100 100 100 100 100 100 100 100 100 100 100 100 100 100 100 100 100 100
6 3 0 1 0 0 0 0 0 0 0 0 0 0 0 0 0 0 0 0 0
100 100 100 100 100 100 100 100 100 100 100 100 100 100 100 100 100 100 100 100 100
5 8 2 3 1 0 0 0 0 0 0 0 0 0 0 0 0 0 0 0 0
100 100 100 100 100 100 100 100 100 100 100 100 100 100 100 100 100 100 100 100 100
1 3 1 13 3 1 5 6 4 11 6 2 5 3 1 2 1 0 0 2 1
100 100 100 100 100 100 100 100 100 100 100 100 100 100 100 100 100 100 100 100 100
40 62 77 87 92 88 90 93 92 90 92 89 88 88 84 90 88 84 92 92 91
100 100 100 100 100 100 100 100 100 100 100 100 100 100 100 100 100 100 100 100 100
32 42 66 61 78 86 81 74 84 81 89 88 88 88 86 94 93 97 98 97 95
100 100 100 100 100 100 100 100 100 100 100 100 100 100 100 100 100 100 100 100 100
20 19 37 30 30 38 27 14 14 21 20 17 13 9 6 8 5 9 6 5 4
100 100 100 100 100 100 100 100 100 100 100 100 100 100 100 100 100 100 100 100 100
6 4 5 0 0 0 0 0 0 0 0 0 0 0 0 0 0 0 0 0 0
100 100 100 100 100 100 100 100 100 100 100 100 100 100 100 100 100 100 100 100 100
24 12 8 2 2 5 2 2 0 1 1 2 1 2 2 0 0 2 1 0 0
100 100 100 100 100 100 100 100 100 100 100 100 100 100 100 100 100 100 100 100 100
17 5 1 0 0 0 0 0 0 0 0 0 0 0 0 0 0 0 0 0 0
100 100 100 100 100 100 100 100 100 100 100 100 100 100 100 100 100 100 100 100 100
14 32 25 46 30 26 31 40 29 33 30 34 38 28 35 27 22 15 17 8 19
100 100 100 100 100 100 100 100 100 100 100 100 100 100 100 100 100 100 100 100 100
24 10 4 0 1 1 0 0 0 0 0 0 0 0 0 0 0 0 0 0 0
100 100 100 100 100 100 100 100 100 100 100 100 100 100 100 100 100 100 100 100 100
28 15 6 2 2 1 1 0 0 0 0 0 0 0 0 0 0 0 0 0 0
100 100 100 100 100 100 100 100 100 100 100 100 100 100 100 100 100 100 100 100 100
7 4 3 3 4 6 8 5 8 9 7 9 11 10 14 10 12 14 7 8 9
100 100 100 100 100 100 100 100 100 100 100 100 100 100 100 100 100 100 100 100 100
4 11 7 7 10 9 8 11 10 10 14 15 21 15 18 18 12 10 14 3 13
100 100 100 100 100 100 100 100 100 100 100 100 100 100 100 100 100 100 100 100 100
8 5 1 0 0 0 0 0 0 0 0 0 0 0 0 0 0 0 0 0 0
100 100 100 100 100 100 100 100 100 100 100 100 100 100 100 100 100 100 100 100 100
6 4 5 0 0 0 0 0 0 0 0 0 0 0 0 0 0 0 0 0 0
100 100 100 100 100 100 100 100 100 100 100 100 100 100 100 100 100 100 100 100 100
11 8 6 2 1 1 0 0 0 0 0 0 0 0 0 0 0 0 0 0 0
100 100 100 100 100 100 100 100 100 100 100 100 100 100 100 100 100 100 100 100 100
7 4 3 3 4 6 8 5 8 9 7 9 11 10 14 10 12 14 7 8 9
100 100 100 100 100 100 100 100 100 100 100 100 100 100 100 100 100 100 100 100 100
11 8 6 2 1 1 0 0 0 0 0 0 0 0 0 0 0 0 0 0 0
100 100 100 100 100 100 100 100 100 100 100 100 100 100 100 100 100 100 100 100 100
9 20 16 35 23 16 19 28 21 21 14 15 13 12 15 8 10 7 5 4 5
100 100 100 100 100 100 100 100 100 100 100 100 100 100 100 100 100 100 100 100 100
1 5 2 13 3 4 6 6 8 11 6 3 5 4 3 2 1 0 0 2 1
100 100 100 100 100 100 100 100 100 100 100 100 100 100 100 100 100 100 100 100 100
20 19 37 30 30 38 27 14 14 21 20 17 13 9 6 8 5 9 6 5 4
100 100 100 100 100 100 100 100 100 100 100 100 100 100 100 100 100 100 100 100 100
19 14 8 2 1 1 0 0 0 0 0 0 0 0 0 0 0 0 0 0 0
100 100 100 100 100 100 100 100 100 100 100 100 100 100 100 100 100 100 100 100 100
8 5 1 0 0 0 0 0 0 0 0 0 0 0 0 0 0 0 0 0 0
100 100 100 100 100 100 100 100 100 100 100 100 100 100 100 100 100 100 100 100 100
35 53 79 92 96 98 99 100 100 100 100 100 100 100 100 100 100 100 100 100 100
100 100 100 100 100 100 100 100 100 100 100 100 100 100 100 100 100 100 100 100 100
7 5 1 0 0 0 0 0 0 0 0 0 0 0 0 0 0 0 0 0 0
100 100 100 100 100 100 100 100 100 100 100 100 100 100 100 100 100 100 100 100 100
9 18 14 36 19 13 18 28 17 19 11 13 14 12 15 6 8 4 3 4 5
100 100 100 100 100 100 100 100 100 100 100 100 100 100 100 100 100 100 100 100 100
27 35 65 58 77 85 79 74 84 81 89 88 88 86 85 91 90 95 95 94 91
100 100 100 100 100 100 100 100 100 100 100 100 100 100 100 100 100 100 100 100 100
24 12 8 2 2 5 2 2 0 1 1 2 1 2 2 0 0 2 1 0 0
100 100 100 100 100 100 100 100 100 100 100 100 100 100 100 100 100 100 100 100 100
10 8 6 2 1 1 0 0 0 0 0 0 0 0 0 0 0 0 0 0 0
100 100 100 100 100 100 100 100 100 100 100 100 100 100 100 100 100 100 100 100 100
27 13 5 2 1 1 0 0 0 0 0 0 0 0 0 0 0 0 0 0 0
100 100 100 100 100 100 100 100 100 100 100 100 100 100 100 100 100 100 100 100 100
20 19 37 30 30 38 27 14 14 21 20 17 13 9 6 8 5 9 6 5 4
100 100 100 100 100 100 100 100 100 100 100 100 100 100 100 100 100 100 100 100 100
0 0 1 3 0 4 4 2 2 4 5 6 3 1 2 3 2 1 0 1 1
100 100 100 100 100 100 100 100 100 100 100 100 100 100 100 100 100 100 100 100 100
6 3 4 0 0 0 0 0 0 0 0 0 0 0 0 0 0 0 0 0 0
100 100 100 100 100 100 100 100 100 100 100 100 100 100 100 100 100 100 100 100 100
9 19 15 36 20 12 18 26 16 19 11 12 12 12 14 6 7 3 2 3 5
100 100 100 100 100 100 100 100 100 100 100 100 100 100 100 100 100 100 100 100 100
82 87 93 98 99 99 100 100 100 100 100 100 100 100 100 100 100 100 100 100 100
100 100 100 100 100 100 100 100 100 100 100 100 100 100 100 100 100 100 100 100 100
15 3 0 0 0 0 0 0 0 0 0 0 0 0 0 0 0 0 0 0 0
100 100 100 100 100 100 100 100 100 100 100 100 100 100 100 100 100 100 100 100 100
79 88 94 99 100 100 100 100 100 100 100 100 100 100 100 100 100 100 100 100 100
100 100 100 100 100 100 100 100 100 100 100 100 100 100 100 100 100 100 100 100 100
0 0 3 6 4 10 12 6 9 13 9 13 13 10 15 12 13 13 6 7 10
100 100 100 100 100 100 100 100 100 100 100 100 100 100 100 100 100 100 100 100 100
3 2 2 3 4 6 8 5 8 9 7 9 11 10 14 10 12 14 7 8 9
100 100 100 100 100 100 100 100 100 100 100 100 100 100 100 100 100 100 100 100 100
5 8 2 3 1 0 0 0 0 0 0 0 0 0 0 0 0 0 0 0 0
100 100 100 100 100 100 100 100 100 100 100 100 100 100 100 100 100 100 100 100 100
9 18 14 36 19 13 18 28 17 19 11 13 14 12 15 6 8 4 3 4 5
100 100 100 100 100 100 100 100 100 100 100 100 100 100 100 100 100 100 100 100 100
7 4 3 3 4 6 8 5 8 9 7 9 11 10 14 10 12 14 7 8 9
100 100 100 100 100 100 100 100 100 100 100 100 100 100 100 100 100 100 100 100 100
0 0 0 0 0 0 0 0 0 0 0 2 0 0 1 1 3 8 3 7 9
100 100 100 100 100 100 100 100 100 100 100 100 100 100 100 100 100 100 100 100 100
70 77 89 89 94 93 92 95 92 91 93 91 89 90 86 90 88 86 93 92 91
100 100 100 100 100 100 100 100 100 100 100 100 100 100 100 100 100 100 100 100 100
11 8 6 2 1 1 0 0 0 0 0 0 0 0 0 0 0 0 0 0 0
100 100 100 100 100 100 100 100 100 100 100 100 100 100 100 100 100 100 100 100 100
11 8 6 2 1 1 0 0 0 0 0 0 0 0 0 0 0 0 0 0 0
100 100 100 100 100 100 100 100 100 100 100 100 100 100 100 100 100 100 100 100 100
9 9 2 0 0 0 0 0 0 0 0 0 0 0 0 0 0 0 0 0 0
100 100 100 100 100 100 100 100 100 100 100 100 100 100 100 100 100 100 100 100 100
6 3 0 1 0 0 0 0 0 0 0 0 0 0 0 0 0 0 0 0 0
100 100 100 100 100 100 100 100 100 100 100 100 100 100 100 100 100 100 100 100 100
4 9 20 15 32 30 35 42 51 38 49 41 39 54 45 56 62 63 70 82 68
100 100 100 100 100 100 100 100 100 100 100 100 100 100 100 100 100 100 100 100 100
17 19 35 29 30 36 26 15 14 20 16 18 13 9 7 8 6 9 6 4 4
100 100 100 100 100 100 100 100 100 100 100 100 100 100 100 100 100 100 100 100 100
19 7 3 0 1 0 1 0 0 0 0 0 0 0 0 0 0 0 0 0 0
100 100 100 100 100 100 100 100 100 100 100 100 100 100 100 100 100 100 100 100 100
7 4 3 3 4 6 8 5 8 9 7 9 11 10 14 10 12 14 7 8 9
100 100 100 100 100 100 100 100 100 100 100 100 100 100 100 100 100 100 100 100 100
9 20 16 37 24 16 19 28 21 21 14 15 13 12 15 8 10 7 5 4 5
100 100 100 100 100 100 100 100 100 100 100 100 100 100 100 100 100 100 100 100 100
6 5 3 0 1 1 0 0 0 0 0 0 0 0 0 0 0 0 0 0 0
100 100 100 100 100 100 100 100 100 100 100 100 100 100 100 100 100 100 100 100 100
24 10 4 0 1 1 0 0 0 0 0 0 0 0 0 0 0 0 0 0 0
100 100 100 100 100 100 100 100 100 100 100 100 100 100 100 100 100 100 100 100 100
9 9 2 0 0 0 0 0 0 0 0 0 0 0 0 0 0 0 0 0 0
100 100 100 100 100 100 100 100 100 100 100 100 100 100 100 100 100 100 100 100 100
9 9 2 0 0 0 0 0 0 0 0 0 0 0 0 0 0 0 0 0 0
100 100 100 100 100 100 100 100 100 100 100 100 100 100 100 100 100 100 100 100 100
44 26 12 5 3 2 1 0 0 0 0 0 0 0 0 0 0 0 0 0 0
100 100 100 100 100 100 100 100 100 100 100 100 100 100 100 100 100 100 100 100 100
40 62 77 87 92 88 90 93 92 90 92 89 88 88 84 90 88 84 92 92 91
100 100 100 100 100 100 100 100 100 100 100 100 100 100 100 100 100 100 100 100 100
70 78 89 89 94 93 92 95 92 91 93 91 89 90 86 90 88 86 93 92 91
100 100 100 100 100 100 100 100 100 100 100 100 100 100 100 100 100 100 100 100 100
12 10 2 6 2 0 0 0 0 0 0 0 0 0 0 0 0 0 0 0 0
100 100 100 100 100 100 100 100 100 100 100 100 100 100 100 100 100 100 100 100 100
5 8 2 3 1 0 0 0 0 0 0 0 0 0 0 0 0 0 0 0 0
100 100 100 100 100 100 100 100 100 100 100 100 100 100 100 100 100 100 100 100 100
9 9 2 0 0 0 0 0 0 0 0 0 0 0 0 0 0 0 0 0 0
100 100 100 100 100 100 100 100 100 100 100 100 100 100 100 100 100 100 100 100 100
73 80 92 94 98 99 100 100 100 100 100 100 100 100 100 100 100 100 100 100 100
100 100 100 100 100 100 100 100 100 100 100 100 100 100 100 100 100 100 100 100 100
11 8 6 2 1 1 0 0 0 0 0 0 0 0 0 0 0 0 0 0 0
100 100 100 100 100 100 100 100 100 100 100 100 100 100 100 100 100 100 100 100 100
1 2 2 3 5 4 1 4 5 3 4 6 1 0 1 3 3 4 3 1 0
100 100 100 100 100 100 100 100 100 100 100 100 100 100 100 100 100 100 100 100 100
5 7 1 0 0 0 0 0 0 0 0 0 0 0 0 0 0 0 0 0 0
100 100 100 100 100 100 100 100 100 100 100 100 100 100 100 100 100 100 100 100 100
32 42 66 59 77 85 79 74 84 81 89 88 88 86 85 91 90 95 95 94 91
100 100 100 100 100 100 100 100 100 100 100 100 100 100 100 100 100 100 100 100 100
7 5 3 3 4 6 8 5 8 9 7 9 11 10 14 10 12 14 7 8 9
100 100 100 100 100 100 100 100 100 100 100 100 100 100 100 100 100 100 100 100 100
6 4 2 1 1 1 0 0 0 0 0 0 0 0 0 0 0 0 0 0 0
100 100 100 100 100 100 100 100 100 100 100 100 100 100 100 100 100 100 100 100 100
32 42 66 59 77 85 79 74 84 81 89 88 88 86 85 91 90 95 95 94 91
100 100 100 100 100 100 100 100 100 100 100 100 100 100 100 100 100 100 100 100 100
14 32 24 43 30 22 28 38 27 29 25 28 35 27 33 24 20 14 17 7 18
100 100 100 100 100 100 100 100 100 100 100 100 100 100 100 100 100 100 100 100 100
9 9 2 0 0 0 0 0 0 0 0 0 0 0 0 0 0 0 0 0 0
100 100 100 100 100 100 100 100 100 100 100 100 100 100 100 100 100 100 100 100 100
44 62 84 96 97 98 99 100 100 100 100 100 100 100 100 100 100 100 100 100 100
100 100 100 100 100 100 100 100 100 100 100 100 100 100 100 100 100 100 100 100 100
44 26 12 5 3 3 3 0 0 0 0 0 0 2 1 3 3 2 3 3 4
100 100 100 100 100 100 100 100 100 100 100 100 100 100 100 100 100 100 100 100 100
19 7 3 0 1 0 1 0 0 0 0 0 0 0 0 0 0 0 0 0 0
